<?xml version="1.0" encoding="utf-8"?>
<!-- Generator: Adobe Illustrator 17.0.0, SVG Export Plug-In . SVG Version: 6.00 Build 0)  -->
<!DOCTYPE svg PUBLIC "-//W3C//DTD SVG 1.1//EN" "http://www.w3.org/Graphics/SVG/1.1/DTD/svg11.dtd">
<svg version="1.1" id="icons" xmlns="http://www.w3.org/2000/svg" xmlns:xlink="http://www.w3.org/1999/xlink" x="0px" y="0px"
	 width="1000px" height="1000px" viewBox="0 0 1000 1000" enable-background="new 0 0 1000 1000" xml:space="preserve">
<path fill-rule="evenodd" clip-rule="evenodd" fill="#231F20" d="M81.796,321.566l0.398,112.328
	c45.26-18.951,84.407-41.752,123.134-77.027v451.405h116.014V172.427c-18.906,0-37.819,0.005-56.73,0.005
	C211.225,243.962,149.461,287.974,81.796,321.566L81.796,321.566z M448.766,462.48c-58.024,50.608-89.459,87.258-92.65,171.336
	c-4.885,128.242,87.136,197.911,195.184,197.107c108.051-0.794,202.044-64.125,200.455-188.091
	c-1.056-83.023-30.686-120.236-91.498-170.111c43.325-31.976,69.61-93.56,69.714-150.556
	c0.115-56.989-42.929-150.435-170.694-150.926c-127.768-0.497-172.802,72.409-176.218,171.364
	C381.512,387.509,411.837,433.316,448.766,462.48L448.766,462.48L448.766,462.48z M575.2,419.88L575.2,419.88
	c-39.382-29.871-82.483-52.087-82.483-94.075c0-41.996,34.958-52.434,57.995-54.13c23.042-1.697,59.348,16.154,63.149,52.835
	C617.662,361.198,598.16,395.244,575.2,419.88L575.2,419.88z M541.228,519.801L541.228,519.801
	c40.964,23.07,92.18,57.97,95.029,110.442c3.04,55.685-36.694,91.25-81.507,93.57c-44.813,2.336-82.858-37.543-81.998-92.336
	C473.611,576.68,504.085,555.013,541.228,519.801L541.228,519.801z M793.474,385.515h46.502v77.099h77.092v46.502h-77.092v77.091
	h-46.502v-77.091H716.38v-46.502h77.094V385.515L793.474,385.515z M130.462,2.316h739.077C913.791,2.316,950,38.524,950,82.782
	v834.435c0,44.258-36.209,80.467-80.461,80.467H130.462c-44.251,0-80.462-36.21-80.462-80.467V82.782
	C50,38.524,86.211,2.316,130.462,2.316L130.462,2.316z"/>
</svg>
