<?xml version="1.0" encoding="utf-8"?>
<!-- Generator: Adobe Illustrator 17.1.0, SVG Export Plug-In . SVG Version: 6.00 Build 0)  -->
<!DOCTYPE svg PUBLIC "-//W3C//DTD SVG 1.1//EN" "http://www.w3.org/Graphics/SVG/1.1/DTD/svg11.dtd">
<svg version="1.1" id="Layer_1" xmlns="http://www.w3.org/2000/svg" xmlns:xlink="http://www.w3.org/1999/xlink" x="0px" y="0px"
	 viewBox="0 0 109.1 22" enable-background="new 0 0 109.1 22" xml:space="preserve">
<g>
	<path fill="#FFF5EB" d="M109.1,20c0,1.1-0.9,2-2,2H2.1c-1.1,0-2-0.9-2-2V2c0-1.1,0.9-2,2-2h105c1.1,0,2,0.9,2,2V20z"/>
	<path fill="#E4F0DE" d="M98,0c-1.6,0-3.8,0.9-5,2L81.8,13.1c-1.1,1.1-3.4,1.9-4.9,1.7l-40.2-4.7c-1.6-0.2-4.2-0.2-5.8,0L2.9,13
		C1.3,13.1,0,14.6,0,16.2v2.9C0,20.7,1.3,22,2.9,22h103.2c1.6,0,2.9-1.3,2.9-2.9V2.9c0-1.6-1.3-2.9-2.9-2.9H98z"/>
	<path fill="#D1C6C6" d="M6.4,15.9L9,11.5l0.2-7.9l1.5,0.9l-0.2,3.7c-0.1,1-0.1,1.8-0.2,2.7l0,0c0.7-0.5,1.4-1,2.3-1.5l3.2-2
		l1.5,0.9l-6.9,4l-2.6,4.4L6.4,15.9z"/>
	<path fill="#D1C6C6" d="M22.8,12.2v0.7L19.4,20h-1.1l3.4-6.9v0h-3.8v-0.9H22.8z"/>
	<path fill="#D1C6C6" d="M25.5,15.8c-0.2-1,0.3-1.8,1.2-2.3l0,0c-0.9-0.3-1.4-0.8-1.5-1.5c-0.2-1.2,0.7-2.2,2-2.5
		c1.5-0.3,2.4,0.5,2.6,1.5c0.1,0.6-0.1,1.4-0.9,2l0,0c1,0.2,1.7,0.8,1.9,1.7c0.2,1.3-0.8,2.4-2.2,2.7C26.8,17.7,25.7,16.9,25.5,15.8
		z M29.6,15c-0.2-0.9-0.9-1.3-2-1.4c-0.9,0.4-1.2,1.1-1.1,1.8c0.1,0.8,0.8,1.4,1.8,1.2C29.3,16.5,29.8,15.8,29.6,15z M26.1,11.7
		c0.1,0.8,0.8,1.1,1.7,1.2c0.6-0.3,1-0.9,0.9-1.6c-0.1-0.6-0.6-1.2-1.5-1C26.3,10.4,26,11,26.1,11.7z"/>
	<path fill="#D1C6C6" d="M39.6,19.1l6.8-12l0-0.1l-7.1,0.6l-0.1-1.5l9.4-0.8l0.1,1.1l-6.7,12l0,0.1l7.8-0.7l0.1,1.5l-10.2,0.9
		L39.6,19.1z"/>
	<path fill="#D1C6C6" d="M53.6,11.8c0.1-0.6,0.1-1.1,0.1-1.6l0.9,0.1l-0.1,1l0,0c0.4-0.5,1.1-1,2-0.8c0.8,0.1,2,0.7,1.7,2.7L58,16.6
		l-1-0.1l0.4-3.3c0.1-0.9-0.1-1.7-1.1-1.9c-0.7-0.1-1.3,0.3-1.5,0.9c-0.1,0.1-0.1,0.3-0.1,0.5l-0.4,3.5l-1-0.1L53.6,11.8z"/>
	<path fill="#D1C6C6" d="M69.9,10.2l1.2-0.6L75,18l4-1.9l0.5,1l-5.2,2.4L69.9,10.2z"/>
	<path fill="#D1C6C6" d="M74.3,6.8L74.3,6.8c-0.3,0.6-1,1-1.9,1c-1.4,0-2.5-1.2-2.5-2.9c0-2.2,1.4-3.1,2.6-3.1c0.9,0,1.5,0.4,1.8,1
		h0l0-0.9h1c0,0.5,0,1,0,1.6V10h-1.1V6.8z M74.3,4.2c0-0.1,0-0.3,0-0.4c-0.2-0.6-0.7-1.2-1.5-1.2c-1.1,0-1.8,0.9-1.8,2.2
		C71,6,71.6,7,72.7,7c0.7,0,1.3-0.4,1.5-1.2c0-0.1,0.1-0.3,0.1-0.5V4.2z"/>
	<path fill="#D1C6C6" d="M63.9,12.1h-3l-0.3,2c0.2,0,0.3,0,0.6,0c0.6,0,1.2,0.1,1.7,0.4c0.6,0.3,1.1,1,1.1,2c0,1.5-1.2,2.7-2.9,2.7
		c-0.9,0-1.6-0.2-1.9-0.5l0.3-0.8c0.3,0.2,1,0.4,1.7,0.4c1,0,1.8-0.6,1.8-1.7c0-1-0.7-1.7-2.2-1.7c-0.4,0-0.8,0-1.1,0.1l0.5-3.7h3.7
		V12.1z"/>
	<path fill="#D1C6C6" d="M93,18c-0.7,0.1-2.1,0.4-3.7,0.1c-1.8-0.2-3.1-0.9-4.1-2.1c-0.9-1.1-1.3-2.7-1-4.6c0.5-3.5,3.2-5.7,7.1-5.1
		c1.3,0.2,2.4,0.6,2.8,0.9l-0.5,1.2c-0.6-0.4-1.3-0.7-2.5-0.9c-2.8-0.4-4.9,1.1-5.3,4c-0.4,3,1.1,4.9,3.8,5.3c1,0.1,1.7,0.1,2,0
		l0.5-3.5l-2.4-0.3l0.2-1.2l3.8,0.5L93,18z"/>
	<path fill="#D1C6C6" d="M105.4,3.9c-0.1,0.4-0.2,0.9-0.3,1.6l-0.5,3.3c-0.2,1.3-0.6,2.1-1.2,2.5c-0.6,0.4-1.5,0.5-2.2,0.4
		c-0.7-0.1-1.4-0.4-1.8-0.7l0.4-0.8c0.3,0.3,0.9,0.6,1.6,0.7c1.1,0.2,1.9-0.3,2.1-1.7l0.1-0.6l0,0c-0.4,0.5-1.1,0.8-2,0.7
		c-1.4-0.2-2.3-1.6-2.1-3.1c0.3-1.9,1.7-2.9,3-2.7c1,0.1,1.5,0.7,1.7,1.2l0,0l0.2-0.9L105.4,3.9z M104,6c0-0.2,0-0.3,0-0.5
		c-0.1-0.6-0.5-1.2-1.3-1.3c-1-0.1-1.8,0.6-2,1.9c-0.2,1.1,0.3,2.1,1.4,2.3c0.6,0.1,1.3-0.2,1.6-0.9c0.1-0.2,0.1-0.4,0.2-0.5L104,6z
		"/>
	<g>
		<path fill="#FFFFFF" d="M46.5,14.6c-4.7,0-10.3-1.1-15.8-4.6c-9.5-6.1-19.3-2.8-26.8,0.7l-0.2-0.5c7.6-3.6,17.6-6.9,27.4-0.7
			c10.4,6.6,21.3,4.4,24.6,3l0.2,0.5C54.2,13.7,50.8,14.6,46.5,14.6z"/>
		<path fill="#FFFFFF" d="M46.5,12.6c-4.7,0-10.3-1.1-15.8-4.6C21.1,1.9,11.3,5.2,3.8,8.7L3.6,8.2c7.6-3.6,17.6-6.9,27.4-0.7
			c10.4,6.6,21.3,4.4,24.6,3l0.2,0.5C54.2,11.7,50.8,12.6,46.5,12.6z"/>
		<path fill="#FFFFFF" d="M46.5,10.6c-4.7,0-10.3-1.1-15.8-4.6C21.1-0.1,11.3,3.2,3.8,6.7L3.6,6.2c7.6-3.6,17.6-6.9,27.4-0.7
			c10.4,6.6,21.3,4.4,24.6,3L55.8,9C54.2,9.7,50.8,10.6,46.5,10.6z"/>
	</g>
	<polygon fill="#FFFFFF" points="106.3,20.4 104.8,19.4 103.1,20 103.6,18.3 102.4,16.9 104.2,16.8 105.2,15.2 105.9,17 107.6,17.4 
		106.2,18.5 	"/>
	<polygon fill="#FFFFFF" points="100.5,16.3 100.9,15.7 100.6,15.1 101.3,15.2 101.8,14.8 101.9,15.5 102.5,15.9 101.8,16.1 
		101.6,16.8 101.2,16.2 	"/>
	<polygon fill="#FFFFFF" points="8.7,19.6 9.1,19 8.9,18.4 9.6,18.5 10.1,18.1 10.1,18.8 10.7,19.2 10.1,19.4 9.9,20.1 9.4,19.5 	
		"/>
	<polygon fill="#FFFFFF" points="81.4,2.7 82,2.4 82.1,1.7 82.6,2.2 83.3,2.1 82.9,2.7 83.3,3.3 82.6,3.2 82.1,3.7 82,3 	"/>
	<polygon fill="#FFFFFF" points="83.6,3.7 83.9,3.5 84,3.2 84.2,3.4 84.5,3.4 84.4,3.7 84.5,4 84.2,3.9 84,4.2 83.9,3.8 	"/>
	<polygon fill="#FFFFFF" points="101,17.3 101.3,17.1 101.4,16.8 101.6,17 101.9,17 101.8,17.3 101.9,17.6 101.6,17.5 101.4,17.8 
		101.3,17.5 	"/>
	<polygon fill="#FFFFFF" points="96.4,3.9 96.4,4.3 96.7,4.5 96.3,4.6 96.2,4.9 96,4.6 95.7,4.6 95.9,4.3 95.8,4 96.1,4.1 	"/>
	<polygon fill="#FFFFFF" points="97.4,1.7 98.1,1.7 98.5,1.2 98.7,1.9 99.3,2.1 98.8,2.5 98.7,3.2 98.2,2.7 97.5,2.9 97.8,2.3 	"/>
	<polygon fill="#FFFFFF" points="62.1,7.3 62.8,7.4 63.2,6.8 63.4,7.5 64,7.8 63.4,8.1 63.4,8.8 62.9,8.4 62.2,8.6 62.5,7.9 	"/>
	<polygon fill="#FFFFFF" points="11.6,17.2 12.2,17.6 12.9,17.4 12.7,18.1 13.1,18.6 12.4,18.6 12,19.2 11.8,18.6 11.1,18.4 
		11.7,17.9 	"/>
	<polygon fill="#FFFFFF" points="96.4,1.9 95.7,1.8 95.2,2.4 95.1,1.7 94.4,1.5 95,1.1 95,0.4 95.6,0.8 96.3,0.6 96,1.3 	"/>
	<polygon fill="#FFFFFF" points="54.6,2.2 54.9,2.1 55,1.7 55.2,2 55.6,1.9 55.4,2.2 55.6,2.5 55.2,2.5 55,2.7 54.9,2.4 	"/>
	<polygon fill="#FFFFFF" points="56.8,4.2 57.1,4 57.1,3.7 57.4,3.9 57.7,3.9 57.6,4.2 57.7,4.5 57.4,4.4 57.1,4.7 57.1,4.3 	"/>
	<polygon fill="#FFFFFF" points="17.9,15.8 18.2,15.6 18.3,15.3 18.5,15.5 18.9,15.5 18.7,15.8 18.9,16.1 18.5,16 18.3,16.3 
		18.2,16 	"/>
	<polygon fill="#FFFFFF" points="81.8,9.4 82.1,9.3 82.2,8.9 82.4,9.2 82.8,9.1 82.6,9.4 82.8,9.7 82.4,9.7 82.2,9.9 82.1,9.6 	"/>
	<polygon fill="#FFFFFF" points="16.1,10.6 16.4,10.4 16.5,10.1 16.7,10.3 17.1,10.3 16.9,10.6 17.1,10.9 16.7,10.8 16.5,11.1 
		16.4,10.7 	"/>
	<polygon fill="#FFFFFF" points="93.6,19.1 94,18.9 94,18.6 94.2,18.8 94.6,18.8 94.4,19.1 94.6,19.4 94.2,19.3 94,19.6 94,19.3 	
		"/>
	<polygon fill="#FFFFFF" points="68,14.6 68.3,14.4 68.3,14.1 68.6,14.3 68.9,14.3 68.8,14.6 68.9,14.9 68.6,14.8 68.3,15.1 
		68.3,14.7 	"/>
	<polygon fill="#FFFFFF" points="81.8,5.2 82.1,5 82.2,4.7 82.4,4.9 82.8,4.9 82.6,5.2 82.8,5.5 82.4,5.4 82.2,5.7 82.1,5.3 	"/>
	<polygon fill="#FFFFFF" points="1.9,19.6 2.2,19.4 2.2,19.1 2.5,19.3 2.8,19.3 2.7,19.6 2.8,19.9 2.5,19.8 2.2,20.1 2.2,19.8 	"/>
	<polygon fill="#FFFFFF" points="21.5,8.3 21.4,8 21,7.9 21.3,7.7 21.2,7.4 21.5,7.5 21.8,7.4 21.8,7.7 22,7.9 21.7,8 	"/>
	<polygon fill="#FFFFFF" points="16.3,11.6 16.1,11.9 16.2,12.3 15.9,12.2 15.6,12.4 15.6,12 15.3,11.9 15.7,11.7 15.7,11.4 
		16,11.7 	"/>
	<polygon fill="#FFFFFF" points="3.3,4.9 3.1,5.2 3.3,5.5 2.9,5.4 2.7,5.7 2.7,5.3 2.4,5.1 2.7,5 2.8,4.7 3,4.9 	"/>
	<polygon fill="#FFFFFF" points="11.1,20.5 10.8,20.5 10.6,20.9 10.5,20.6 10.1,20.5 10.4,20.3 10.3,19.9 10.6,20.1 10.9,19.9 
		10.9,20.2 	"/>
	<polygon fill="#FFFFFF" points="16.1,1.6 16.7,2 17.3,1.8 17.1,2.5 17.6,3 16.9,3.1 16.5,3.7 16.3,3 15.6,2.8 16.1,2.4 	"/>
	<polygon fill="#FFFFFF" points="5.5,2.7 5.8,2.5 5.9,2.2 6.1,2.4 6.4,2.3 6.3,2.7 6.4,3 6.1,2.9 5.9,3.2 5.8,2.8 	"/>
	<polygon fill="#FFFFFF" points="7.8,17.3 8.1,17.1 8.2,16.8 8.4,17 8.7,17 8.6,17.3 8.7,17.6 8.4,17.5 8.2,17.8 8.1,17.5 	"/>
</g>
</svg>
