<?xml version="1.0" encoding="utf-8"?>
<!-- Generator: Adobe Illustrator 17.1.0, SVG Export Plug-In . SVG Version: 6.00 Build 0)  -->
<!DOCTYPE svg PUBLIC "-//W3C//DTD SVG 1.1//EN" "http://www.w3.org/Graphics/SVG/1.1/DTD/svg11.dtd">
<svg version="1.1" id="Слой_1" xmlns="http://www.w3.org/2000/svg" xmlns:xlink="http://www.w3.org/1999/xlink" x="0px" y="0px"
	 viewBox="0 0 13.6 13.2" enable-background="new 0 0 13.6 13.2" xml:space="preserve">
<g transform="translate(672 0)">
	<path fill="#CFCFCF" d="M-660.5,4C-660.5,4-660.5,3.9-660.5,4l0.7-0.7c0.4-0.4,0.5-1,0.1-1.3l-1-1c-0.3-0.3-0.9-0.3-1.3,0.1
		l-0.7,0.7c0,0,0,0,0,0.1L-660.5,4z"/>
	<path fill="#CFCFCF" d="M-670,11.2l1.1,1.1l-2.9,0.7l0.7-2.9L-670,11.2z"/>
	<path fill="#CFCFCF" d="M-663.1,2.1l-7.6,7.6l2.2,2.2l7.6-7.6"/>
	<path fill="#CFCFCF" d="M-658.7,12.9c-1.2,0-1.4-0.3-1.8-1.5c-0.7-1.9-4,0.5-2,1.3C-660.4,13.6-657.5,12.9-658.7,12.9z"/>
	<path fill="#CFCFCF" d="M-662.7,9.6l-1.1-1.6l-1.1,1.1l1.2,1.3c0.6,0.8,0.5,0.7,1.1,0.3C-662.1,10.2-662.1,10.4-662.7,9.6
		L-662.7,9.6z"/>
	<path fill="#CFCFCF" d="M-666.3,4.6l-2.7-3.8c-0.6-0.8-1.6-1-2.2-0.5c-0.6,0.5-0.6,1.5,0,2.2l3.3,3.6L-666.3,4.6z"/>
</g>
</svg>
