<?xml version="1.0" encoding="utf-8"?>
<!-- Generator: Adobe Illustrator 17.1.0, SVG Export Plug-In . SVG Version: 6.00 Build 0)  -->
<!DOCTYPE svg PUBLIC "-//W3C//DTD SVG 1.1//EN" "http://www.w3.org/Graphics/SVG/1.1/DTD/svg11.dtd">
<svg version="1.1" id="Слой_1" xmlns="http://www.w3.org/2000/svg" xmlns:xlink="http://www.w3.org/1999/xlink" x="0px" y="0px"
	 viewBox="0 0 16.3 16.8" enable-background="new 0 0 16.3 16.8" xml:space="preserve">
<path fill="#969696" d="M10.8,9.2C12.1,8.3,13,6.8,13,5c0-2.8-2.3-5-5.1-5S2.9,2.3,2.9,5.1c0,1.8,0.9,3.3,2.4,4.2
	C2.2,10.5,0,13.8,0,16.8h16.3C16.3,12.8,14,10.3,10.8,9.2z"/>
</svg>
