<?xml version="1.0" encoding="utf-8"?>
<!-- Generator: Adobe Illustrator 17.1.0, SVG Export Plug-In . SVG Version: 6.00 Build 0)  -->
<!DOCTYPE svg PUBLIC "-//W3C//DTD SVG 1.1//EN" "http://www.w3.org/Graphics/SVG/1.1/DTD/svg11.dtd">
<svg version="1.1" id="Layer_1" xmlns="http://www.w3.org/2000/svg" xmlns:xlink="http://www.w3.org/1999/xlink" x="0px" y="0px"
	 viewBox="0 0 22.4 12.6" enable-background="new 0 0 22.4 12.6" xml:space="preserve">
<g>
	<path fill-rule="evenodd" clip-rule="evenodd" fill="#63acdc" d="M11.8,1.9h9c0.4,0,0.8,0.1,1.1,0.4l-5.5,4.6l-5.5-4.6
		C11,2.1,11.4,1.9,11.8,1.9L11.8,1.9z M22.3,3.1l-6,5l-6-5c-0.1,0.2-0.1,0.3-0.1,0.5v5c0,0.9,0.7,1.6,1.6,1.6h9
		c0.9,0,1.6-0.7,1.6-1.6v-5C22.4,3.4,22.4,3.2,22.3,3.1z"/>
	<rect x="0" y="1.9" fill="#63acdc" width="6.8" height="1.6"/>
	<rect x="1.7" y="5.3" fill="#63acdc" width="5.1" height="1.6"/>
	<rect x="3.4" y="8.6" fill="#63acdc" width="3.4" height="1.6"/>
</g>
</svg>
