<?xml version="1.0" encoding="utf-8"?>
<!-- Generator: Adobe Illustrator 17.1.0, SVG Export Plug-In . SVG Version: 6.00 Build 0)  -->
<!DOCTYPE svg PUBLIC "-//W3C//DTD SVG 1.1//EN" "http://www.w3.org/Graphics/SVG/1.1/DTD/svg11.dtd">
<svg version="1.1" id="Слой_1" xmlns="http://www.w3.org/2000/svg" xmlns:xlink="http://www.w3.org/1999/xlink" x="0px" y="0px"
	 viewBox="0 0 15.9 16.2" enable-background="new 0 0 15.9 16.2" xml:space="preserve">
<g>
	<g transform="translate(0 288)">
		<path fill="#CFCFCF" d="M6-273.8c-0.6,0-1,0.4-1,1c0,0.6,0.4,1,1,1s1-0.4,1-1C7-273.4,6.6-273.8,6-273.8z"/>
		<path fill="#CFCFCF" d="M10-273.8c-0.6,0-1,0.4-1,1c0,0.6,0.4,1,1,1c0.6,0,1-0.4,1-1C11-273.4,10.6-273.8,10-273.8z"/>
	</g>
	<g>
		<path fill="#CFCFCF" d="M6.9,10.2h1.8l0,0l0.4-2l0,0l0.7-4l0,0l0.4-2l0,0H8.3H1c-0.3,0-0.7,0.1-0.9,0.4C0,3,0,3.3,0.1,3.6l3,6
			C3.3,10,3.6,10.2,4,10.2H6.9z M2.6,4.2h5.3l-0.7,4H4.6L2.6,4.2z"/>
		<path fill="#CFCFCF" d="M14.7,0.2H13c-0.5,0-0.9,0.3-1,0.8l-1.9,10.2H9.8h-1H5c-0.6,0-1,0.4-1,1s0.4,1,1,1h6c0.5,0,0.9-0.3,1-0.8
			l1.9-10.2H15c0.6,0,0.9-0.5,0.9-1S15.7,0.2,14.7,0.2z"/>
	</g>
</g>
</svg>
