<?xml version="1.0" encoding="utf-8"?>
<!-- Generator: Adobe Illustrator 17.1.0, SVG Export Plug-In . SVG Version: 6.00 Build 0)  -->
<!DOCTYPE svg PUBLIC "-//W3C//DTD SVG 1.1//EN" "http://www.w3.org/Graphics/SVG/1.1/DTD/svg11.dtd">
<svg version="1.1" id="Слой_1" xmlns="http://www.w3.org/2000/svg" xmlns:xlink="http://www.w3.org/1999/xlink" x="0px" y="0px"
	 viewBox="0 0 6.2 12" enable-background="new 0 0 6.2 12" xml:space="preserve">
<g>
	<polygon fill="#969696" points="2.2,11 2.2,3 3.5,3 1.7,0 0,3 1.2,3 1.2,12 6.2,12 6.2,11 	"/>
</g>
</svg>
