<?xml version="1.0" encoding="utf-8"?>
<!-- Generator: Adobe Illustrator 17.1.0, SVG Export Plug-In . SVG Version: 6.00 Build 0)  -->
<!DOCTYPE svg PUBLIC "-//W3C//DTD SVG 1.1//EN" "http://www.w3.org/Graphics/SVG/1.1/DTD/svg11.dtd">
<svg version="1.1" id="Layer_1" xmlns="http://www.w3.org/2000/svg" xmlns:xlink="http://www.w3.org/1999/xlink" x="0px" y="0px"
	 viewBox="0 0 620.8 27.7" enable-background="new 0 0 620.8 27.7" xml:space="preserve">
<g>
	<path opacity="0" fill="#FFFFFF" d="M309.7,0.8C138.4,1.6,0,5.3,0,9.2c0,3.8,139.1,6.2,310.3,5.4c171.2-0.8,310.4-2.5,310.4-6.3
		C620.8,4.5,480.9,0,309.7,0.8z"/>
	<path opacity="1.923077e-002" fill="#FEFEFE" d="M309.7,0.8C140.2,1.6,3.2,5.3,3.2,9.1c0,3.8,137.7,6.2,307.2,5.3
		c169.4-0.8,307.2-2.5,307.2-6.2C617.6,4.4,479.1-0.1,309.7,0.8z"/>
	<path opacity="3.846154e-002" fill="#FDFDFD" d="M309.7,0.8C142,1.6,6.3,5.2,6.3,9c0,3.7,136.3,6.1,304,5.3
		c167.7-0.8,304.1-2.5,304.1-6.2C614.4,4.4,477.4-0.1,309.7,0.8z"/>
	<path opacity="5.769231e-002" fill="#FCFCFC" d="M309.7,0.8C143.7,1.6,9.5,5.2,9.5,8.9c0,3.7,134.8,6,300.8,5.2
		c165.9-0.8,300.9-2.5,300.9-6.1C611.2,4.3,475.6-0.1,309.7,0.8z"/>
	<path opacity="7.692308e-002" fill="#FBFBFB" d="M309.7,0.7c-164.2,0.8-297,4.4-297,8.1c0,3.6,133.4,6,297.6,5.2
		C474.5,13.2,608,11.5,608,7.9C608,4.3,473.9-0.1,309.7,0.7z"/>
	<path opacity="9.615385e-002" fill="#FAFAFA" d="M309.7,0.7C147.2,1.5,15.8,5.1,15.8,8.7c0,3.6,132,5.9,294.4,5.1
		c162.4-0.8,294.5-2.5,294.5-6C604.8,4.2,472.1-0.1,309.7,0.7z"/>
	<path opacity="0.1154" fill="#F9F9F9" d="M309.7,0.7C149,1.5,19,5,19,8.6c0,3.5,130.6,5.9,291.3,5.1c160.7-0.8,291.3-2.5,291.3-6
		C601.6,4.2,470.3-0.1,309.7,0.7z"/>
	<path opacity="0.1346" fill="#F8F8F8" d="M309.7,0.7C150.7,1.5,22.2,5,22.2,8.5c0,3.5,129.1,5.8,288.1,5
		c158.9-0.8,288.2-2.5,288.2-5.9C598.4,4.1,468.6-0.1,309.7,0.7z"/>
	<path opacity="0.1538" fill="#F7F7F7" d="M309.7,0.7C152.5,1.5,25.3,4.9,25.4,8.4c0,3.4,127.7,5.7,284.9,5
		c157.2-0.8,285-2.5,285-5.9C595.2,4,466.8-0.1,309.7,0.7z"/>
	<path opacity="0.1731" fill="#F6F6F6" d="M309.7,0.7C154.2,1.4,28.5,4.9,28.5,8.3c0,3.4,126.3,5.7,281.7,4.9
		C465.7,12.4,592,10.7,592,7.4C592,4,465.1-0.1,309.7,0.7z"/>
	<path opacity="0.1923" fill="#F5F5F5" d="M309.7,0.7C156,1.4,31.7,4.8,31.7,8.2c0,3.3,124.9,5.6,278.5,4.9
		c153.7-0.8,278.6-2.5,278.6-5.8C588.8,3.9,463.3-0.1,309.7,0.7z"/>
	<path opacity="0.2115" fill="#F4F4F4" d="M309.7,0.6C157.7,1.4,34.8,4.8,34.9,8.1c0,3.3,123.4,5.6,275.4,4.8
		c151.9-0.7,275.4-2.5,275.4-5.8C585.6,3.9,461.6-0.1,309.7,0.6z"/>
	<path opacity="0.2308" fill="#F3F3F3" d="M309.7,0.6C159.5,1.4,38,4.7,38,8c0,3.2,122,5.5,272.2,4.8C460.4,12,582.5,10.3,582.5,7
		C582.4,3.8,459.8-0.1,309.7,0.6z"/>
	<path opacity="0.25" fill="#F2F2F2" d="M309.7,0.6C161.2,1.3,41.2,4.7,41.2,7.9c0,3.2,120.6,5.5,269,4.7
		c148.4-0.7,269.1-2.5,269.1-5.7C579.3,3.8,458.1-0.1,309.7,0.6z"/>
	<path opacity="0.2692" fill="#F1F1F1" d="M309.6,0.6C163,1.3,44.3,4.6,44.4,7.8c0,3.1,119.1,5.4,265.8,4.7
		c146.7-0.7,265.9-2.5,265.9-5.6C576.1,3.7,456.3-0.1,309.6,0.6z"/>
	<path opacity="0.2885" fill="#F0F0F0" d="M309.6,0.6C164.7,1.3,47.5,4.6,47.5,7.7c0,3.1,117.7,5.3,262.6,4.6
		c144.9-0.7,262.7-2.5,262.7-5.6C572.9,3.7,454.6-0.1,309.6,0.6z"/>
	<path opacity="0.3077" fill="#EFEFEF" d="M309.6,0.6c-143.2,0.7-259,3.9-258.9,7c0,3,116.3,5.3,259.5,4.6
		c143.2-0.7,259.5-2.5,259.5-5.5C569.7,3.6,452.8-0.1,309.6,0.6z"/>
	<path opacity="0.3269" fill="#EEEEEE" d="M309.6,0.6C168.2,1.3,53.9,4.4,53.9,7.5c0,3,114.9,5.2,256.3,4.5
		c141.4-0.7,256.4-2.5,256.3-5.5C566.5,3.5,451.1-0.1,309.6,0.6z"/>
	<path opacity="0.3462" fill="#EDEDED" d="M309.6,0.5C170,1.2,57,4.4,57,7.4c0,2.9,113.4,5.2,253.1,4.5
		c139.7-0.7,253.2-2.5,253.2-5.4C563.3,3.5,449.3-0.1,309.6,0.5z"/>
	<path opacity="0.3654" fill="#ECECEC" d="M309.6,0.5C171.7,1.2,60.2,4.3,60.2,7.3c0,2.9,112,5.1,249.9,4.4
		c137.9-0.7,250-2.5,250-5.4C560.1,3.4,447.6-0.2,309.6,0.5z"/>
	<path opacity="0.3846" fill="#EBEBEB" d="M309.6,0.5C173.5,1.2,63.4,4.3,63.4,7.2c0,2.8,110.6,5,246.7,4.4
		C446.3,10.9,556.9,9,556.9,6.2C556.9,3.4,445.8-0.2,309.6,0.5z"/>
	<path opacity="0.4038" fill="#EAEAEA" d="M309.6,0.5C175.2,1.2,66.5,4.2,66.5,7c0,2.8,109.2,5,243.6,4.3
		c134.4-0.7,243.6-2.5,243.6-5.3C553.7,3.3,444-0.2,309.6,0.5z"/>
	<path opacity="0.4231" fill="#E9E9E9" d="M309.6,0.5C177,1.1,69.7,4.2,69.7,6.9c0,2.7,107.7,4.9,240.4,4.3
		C442.8,10.6,550.6,8.7,550.5,6C550.5,3.3,442.3-0.2,309.6,0.5z"/>
	<path opacity="0.4423" fill="#E8E8E8" d="M309.6,0.5C178.7,1.1,72.9,4.1,72.9,6.8c0,2.7,106.3,4.9,237.2,4.2
		C441,10.4,547.4,8.6,547.3,5.9C547.3,3.2,440.5-0.2,309.6,0.5z"/>
	<path opacity="0.4615" fill="#E7E7E7" d="M309.6,0.5C180.5,1.1,76,4.1,76.1,6.7c0,2.6,104.9,4.8,234,4.2
		c129.1-0.6,234.1-2.5,234.1-5.1C544.1,3.2,438.8-0.2,309.6,0.5z"/>
	<path opacity="0.4808" fill="#E6E6E6" d="M309.6,0.4C182.2,1.1,79.2,4,79.2,6.6c0,2.6,103.5,4.8,230.8,4.1
		C437.5,10.1,541,8.3,541,5.7C540.9,3.1,437-0.2,309.6,0.4z"/>
	<path opacity="0.5" fill="#E6E6E6" d="M309.6,0.4C184,1,82.4,4,82.4,6.5c0,2.5,102,4.7,227.7,4.1c125.6-0.6,227.7-2.5,227.7-5
		C537.7,3,435.3-0.2,309.6,0.4z"/>
	<path opacity="0.5192" fill="#E5E5E5" d="M309.6,0.4C185.8,1,85.5,3.9,85.6,6.4c0,2.5,100.6,4.6,224.5,4
		c123.9-0.6,224.6-2.5,224.5-5C534.5,3,433.5-0.2,309.6,0.4z"/>
	<path opacity="0.5385" fill="#E4E4E4" d="M309.6,0.4C187.5,1,88.7,3.9,88.7,6.3c0,2.4,99.2,4.6,221.3,4
		c122.1-0.6,221.4-2.5,221.3-4.9C531.4,2.9,431.8-0.2,309.6,0.4z"/>
	<path opacity="0.5577" fill="#E3E3E3" d="M309.6,0.4C189.3,1,91.9,3.8,91.9,6.2c0,2.4,97.7,4.5,218.1,3.9
		c120.4-0.6,218.2-2.5,218.2-4.9C528.2,2.9,430-0.2,309.6,0.4z"/>
	<path opacity="0.5769" fill="#E2E2E2" d="M309.6,0.4C191,1,95,3.8,95.1,6.1c0,2.3,96.3,4.5,215,3.9c118.6-0.6,215-2.5,215-4.9
		C525,2.8,428.3-0.2,309.6,0.4z"/>
	<path opacity="0.5962" fill="#E1E1E1" d="M309.6,0.4C192.8,0.9,98.2,3.7,98.2,6c0,2.3,94.9,4.4,211.8,3.8
		C426.9,9.3,521.9,7.3,521.8,5C521.8,2.8,426.5-0.2,309.6,0.4z"/>
	<path opacity="0.6154" fill="#E0E0E0" d="M309.6,0.3C194.5,0.9,101.4,3.7,101.4,5.9c0,2.2,93.5,4.3,208.6,3.8
		c115.1-0.6,208.7-2.5,208.6-4.8C518.6,2.7,424.8-0.2,309.6,0.3z"/>
	<path opacity="0.6346" fill="#DFDFDF" d="M309.6,0.3C196.3,0.9,104.5,3.6,104.6,5.8c0,2.2,92,4.3,205.4,3.7
		C423.4,9,515.5,7,515.4,4.8C515.4,2.7,423-0.2,309.6,0.3z"/>
	<path opacity="0.6538" fill="#DEDEDE" d="M309.6,0.3C198,0.9,107.7,3.6,107.7,5.7c0,2.1,90.6,4.2,202.2,3.7
		c111.6-0.5,202.3-2.5,202.3-4.7C512.2,2.6,421.3-0.2,309.6,0.3z"/>
	<path opacity="0.6731" fill="#DDDDDD" d="M309.6,0.3C199.8,0.8,110.9,3.5,110.9,5.6c0,2.1,89.2,4.2,199.1,3.6
		C419.8,8.7,509.1,6.7,509,4.6C509,2.5,419.5-0.2,309.6,0.3z"/>
	<path opacity="0.6923" fill="#DCDCDC" d="M309.6,0.3C201.5,0.8,114,3.4,114.1,5.5c0,2,87.8,4.1,195.9,3.6
		c108.1-0.5,195.9-2.5,195.9-4.6C505.8,2.5,417.7-0.2,309.6,0.3z"/>
	<path opacity="0.7115" fill="#DBDBDB" d="M309.6,0.3C203.3,0.8,117.2,3.4,117.3,5.4c0,2,86.3,4.1,192.7,3.5
		c106.4-0.5,192.8-2.5,192.7-4.5C502.6,2.4,416-0.3,309.6,0.3z"/>
	<path opacity="0.7308" fill="#DADADA" d="M309.6,0.3C205,0.8,120.4,3.3,120.4,5.3c0,1.9,84.9,4,189.5,3.5
		c104.6-0.5,189.6-2.5,189.5-4.5C499.4,2.4,414.2-0.3,309.6,0.3z"/>
	<path opacity="0.75" fill="#D9D9D9" d="M309.6,0.2c-102.9,0.5-186.1,3.1-186,5c0,1.9,83.5,3.9,186.3,3.4
		c102.9-0.5,186.4-2.5,186.4-4.4C496.2,2.3,412.5-0.3,309.6,0.2z"/>
	<path opacity="0.7692" fill="#D8D8D8" d="M309.6,0.2c-101.1,0.5-182.9,3-182.9,4.9c0,1.8,82.1,3.9,183.2,3.4
		C411,8,493.1,5.9,493.1,4.1C493,2.3,410.7-0.3,309.6,0.2z"/>
	<path opacity="0.7885" fill="#D7D7D7" d="M309.6,0.2c-99.4,0.5-179.7,3-179.7,4.8c0,1.8,80.6,3.8,180,3.3c99.4-0.5,180-2.5,180-4.3
		C489.8,2.2,409-0.3,309.6,0.2z"/>
	<path opacity="0.8077" fill="#D6D6D6" d="M309.6,0.2C212,0.7,133,3.1,133.1,4.9c0,1.7,79.2,3.8,176.8,3.3
		c97.6-0.5,176.9-2.5,176.8-4.3C486.7,2.1,407.2-0.3,309.6,0.2z"/>
	<path opacity="0.8269" fill="#D5D5D5" d="M309.6,0.2c-95.8,0.5-173.4,2.9-173.4,4.6C136.3,6.5,214,8.5,309.9,8
		c95.9-0.5,173.7-2.5,173.6-4.2C483.5,2.1,405.5-0.3,309.6,0.2z"/>
	<path opacity="0.8462" fill="#D4D4D4" d="M309.6,0.2C215.5,0.6,139.4,3,139.4,4.7c0.1,1.6,76.4,3.6,170.4,3.2
		C404,7.4,480.4,5.3,480.3,3.7C480.3,2,403.7-0.3,309.6,0.2z"/>
	<path opacity="0.8654" fill="#D3D3D3" d="M309.6,0.2c-92.3,0.5-167.1,2.8-167,4.4c0.1,1.6,74.9,3.6,167.3,3.1
		c92.3-0.5,167.3-2.5,167.3-4.1C477.1,2,402-0.3,309.6,0.2z"/>
	<path opacity="0.8846" fill="#D2D2D2" d="M309.6,0.1C219,0.6,145.7,2.9,145.8,4.5C145.8,6,219.3,8,309.8,7.6
		C400.4,7.1,474,5,473.9,3.5C473.9,1.9,400.2-0.3,309.6,0.1z"/>
	<path opacity="0.9038" fill="#D1D1D1" d="M309.6,0.1c-88.8,0.4-160.7,2.7-160.7,4.2c0.1,1.5,72.1,3.5,160.9,3
		c88.8-0.4,161-2.5,160.9-4C470.7,1.9,398.5-0.3,309.6,0.1z"/>
	<path opacity="0.9231" fill="#D0D0D0" d="M309.6,0.1c-87.1,0.4-157.6,2.7-157.5,4.2c0.1,1.4,70.6,3.4,157.7,3
		c87.1-0.4,157.8-2.5,157.7-4C467.5,1.8,396.7-0.3,309.6,0.1z"/>
	<path opacity="0.9423" fill="#CFCFCF" d="M309.6,0.1c-85.3,0.4-154.4,2.7-154.3,4.1c0.1,1.4,69.2,3.4,154.5,2.9
		c85.3-0.4,154.6-2.5,154.5-3.9C464.3,1.8,395-0.3,309.6,0.1z"/>
	<path opacity="0.9615" fill="#CECECE" d="M309.6,0.1c-83.6,0.4-151.2,2.6-151.2,4c0.1,1.3,67.8,3.3,151.4,2.9
		c83.6-0.4,151.4-2.6,151.4-3.9C461.1,1.7,393.2-0.3,309.6,0.1z"/>
	<path opacity="0.9808" fill="#CDCDCD" d="M309.6,0.1c-81.8,0.4-148.1,2.6-148,3.9c0.1,1.3,66.4,3.2,148.2,2.8
		C391.6,6.4,458,4.2,458,2.9C457.9,1.6,391.4-0.3,309.6,0.1z"/>
	<path fill="#CCCCCC" d="M309.6,0.1c-80.1,0.4-144.9,2.6-144.8,3.8c0.1,1.3,64.9,3.2,145,2.8c80.1-0.4,145.1-2.6,145-3.8
		C454.7,1.6,389.7-0.3,309.6,0.1z"/>
</g>
</svg>
