<?xml version="1.0" encoding="utf-8"?>
<!-- Generator: Adobe Illustrator 17.1.0, SVG Export Plug-In . SVG Version: 6.00 Build 0)  -->
<!DOCTYPE svg PUBLIC "-//W3C//DTD SVG 1.1//EN" "http://www.w3.org/Graphics/SVG/1.1/DTD/svg11.dtd">
<svg version="1.1" id="Слой_1" xmlns="http://www.w3.org/2000/svg" xmlns:xlink="http://www.w3.org/1999/xlink" x="0px" y="0px"
	 viewBox="0 0 16.1 8.1" enable-background="new 0 0 16.1 8.1" xml:space="preserve">
<g transform="translate(48 384)">
	<path fill="#CFCFCF" d="M-39.4-384c-2.5,0-4.7,1.2-6.1,3l-2.6-2.5v7.6h8.1l-2.7-2.5c0.7-2.2,2.8-3.7,5.2-3.7c3,0,5.5,2.5,5.5,5.6
		C-31.9-380.7-35.2-384-39.4-384z"/>
</g>
</svg>
