<?xml version="1.0" encoding="utf-8"?>
<!-- Generator: Adobe Illustrator 17.1.0, SVG Export Plug-In . SVG Version: 6.00 Build 0)  -->
<!DOCTYPE svg PUBLIC "-//W3C//DTD SVG 1.1//EN" "http://www.w3.org/Graphics/SVG/1.1/DTD/svg11.dtd">
<svg version="1.1" id="Слой_1" xmlns="http://www.w3.org/2000/svg" xmlns:xlink="http://www.w3.org/1999/xlink" x="0px" y="0px"
	 viewBox="0 0 47.8 14.6" enable-background="new 0 0 47.8 14.6" xml:space="preserve">
<g>
	<polygon fill-rule="evenodd" clip-rule="evenodd" fill="#00589F" points="16.8,14.4 19.2,0.2 23.1,0.2 20.7,14.4 	"/>
	<path fill-rule="evenodd" clip-rule="evenodd" fill="#00589F" d="M34.7,0.6c-0.8-0.3-2-0.6-3.5-0.6c-3.8,0-6.5,1.9-6.5,4.7
		c0,2,1.9,3.2,3.4,3.9c1.5,0.7,2,1.1,2,1.8c0,1-1.2,1.4-2.3,1.4c-1.5,0-2.4-0.2-3.6-0.7l-0.5-0.2l-0.5,3.2c0.9,0.4,2.6,0.7,4.3,0.8
		c4.1,0,6.7-1.9,6.7-4.8c0-1.6-1-2.8-3.2-3.9c-1.4-0.7-2.2-1.1-2.2-1.8c0-0.6,0.7-1.2,2.2-1.2c1.3,0,2.2,0.3,2.9,0.5l0.3,0.2
		L34.7,0.6z"/>
	<path fill-rule="evenodd" clip-rule="evenodd" fill="#00589F" d="M39.9,9.4c0.3-0.8,1.5-4,1.5-4c0,0,0.3-0.8,0.5-1.4l0.3,1.2
		c0,0,0.7,3.4,0.9,4.1H39.9L39.9,9.4z M44.6,0.3h-3c-0.9,0-1.6,0.3-2,1.2l-5.7,13h4.1c0,0,0.7-1.7,0.8-2.1c0.4,0,4.4,0,5,0
		c0.1,0.5,0.5,2.1,0.5,2.1h3.6L44.6,0.3z"/>
	<path fill-rule="evenodd" clip-rule="evenodd" fill="#00589F" d="M13.6,0.3L9.8,9.9L9.4,8C8.7,5.7,6.5,3.2,4,2l3.5,12.4l4.1,0
		l6.1-14.2H13.6z"/>
	<path fill-rule="evenodd" clip-rule="evenodd" fill="#F9A51A" d="M6.3,0.2H0l0,0.3c4.9,1.2,8.1,4,9.4,7.4L8,1.4
		C7.8,0.5,7.1,0.3,6.3,0.2z"/>
</g>
</svg>
