<?xml version="1.0" encoding="utf-8"?>
<!-- Generator: Adobe Illustrator 17.1.0, SVG Export Plug-In . SVG Version: 6.00 Build 0)  -->
<!DOCTYPE svg PUBLIC "-//W3C//DTD SVG 1.1//EN" "http://www.w3.org/Graphics/SVG/1.1/DTD/svg11.dtd">
<svg version="1.1" id="Слой_1" xmlns="http://www.w3.org/2000/svg" xmlns:xlink="http://www.w3.org/1999/xlink" x="0px" y="0px"
	 viewBox="0 0 54.3 18.5" enable-background="new 0 0 54.3 18.5" xml:space="preserve">
<g>
	<path fill-rule="evenodd" clip-rule="evenodd" fill="#231F20" d="M1.1,18.5H0v-2.7h0.8c0.1-0.1,0.1-0.1,0.2-0.2
		c0.1-0.1,0.1-0.2,0.2-0.4c0.1-0.3,0.3-0.7,0.4-1.2c0.1-0.5,0.2-1.2,0.2-2v-1.4h4v5.2h0.9v2.7H5.5v-1.8H1.1V18.5L1.1,18.5z
		 M4.6,11.6H2.7c0,1.1,0,2-0.1,2.6c-0.1,0.6-0.3,1.2-0.6,1.7h2.6V11.6z"/>
	<path fill-rule="evenodd" clip-rule="evenodd" fill="#231F20" d="M12.9,15.7c-0.1,0.2-0.3,0.3-0.4,0.4c-0.1,0.1-0.3,0.2-0.4,0.3
		c-0.4,0.2-0.7,0.3-1,0.4c-0.3,0-0.5,0.1-0.7,0.1c-0.9,0-1.7-0.3-2.2-0.9c-0.5-0.6-0.8-1.4-0.8-2.2c0-0.9,0.3-1.7,0.8-2.3
		c0.5-0.6,1.2-0.9,2.1-0.9c0.9,0,1.5,0.3,2,0.9c0.4,0.6,0.7,1.2,0.7,1.9c0,0.1,0,0.1,0,0.2c0,0.1,0,0.2,0,0.2v0.1v0.1H8.5v0v0v0v0
		c0,0.5,0.1,0.9,0.4,1.3c0.3,0.4,0.7,0.6,1.4,0.6c0.2,0,0.4,0,0.6-0.1c0.2,0,0.3-0.1,0.5-0.2c0.1-0.1,0.2-0.2,0.4-0.3
		c0.1-0.1,0.3-0.2,0.4-0.4L12.9,15.7L12.9,15.7z M11.7,13c0-0.1,0-0.2,0-0.3c0-0.1-0.1-0.2-0.1-0.3c-0.1-0.2-0.2-0.4-0.5-0.6
		c-0.2-0.2-0.5-0.3-0.9-0.3c-0.4,0-0.8,0.1-1,0.3c-0.2,0.2-0.4,0.4-0.4,0.7c0,0.1,0,0.2-0.1,0.3c0,0.1,0,0.2,0,0.2H11.7z"/>
	<polygon fill-rule="evenodd" clip-rule="evenodd" fill="#231F20" points="15.3,16.7 14.2,16.7 14.2,10.6 15.3,10.6 15.3,13 
		18.1,13 18.1,10.6 19.2,10.6 19.2,16.7 18.1,16.7 18.1,13.9 15.3,13.9 	"/>
	<path fill-rule="evenodd" clip-rule="evenodd" fill="#231F20" d="M22.1,10.6v1.8h1.3c1,0,1.6,0.2,2,0.6c0.3,0.4,0.5,0.9,0.5,1.4
		c0,0.6-0.2,1.2-0.5,1.6c-0.3,0.4-1,0.6-2.1,0.6H21v-6.1H22.1L22.1,10.6z M23.3,15.8c0.5,0,0.8-0.1,1-0.3c0.2-0.2,0.3-0.5,0.3-0.7
		v-0.1v-0.1c0-0.3-0.1-0.6-0.2-0.8c-0.2-0.2-0.5-0.4-1-0.4h-1.2v2.4H23.3z"/>
	<polygon fill-rule="evenodd" clip-rule="evenodd" fill="#231F20" points="28.2,16.7 27.1,16.7 27.1,10.6 31,10.6 31,11.6 
		28.2,11.6 	"/>
	<polygon fill-rule="evenodd" clip-rule="evenodd" fill="#231F20" points="36,11.6 36,10.6 37.1,10.6 37.1,16.7 36,16.7 36,13 
		33.2,15.8 33.2,16.7 32.1,16.7 32.1,10.6 33.2,10.6 33.2,14.5 	"/>
	<g>
		<path fill-rule="evenodd" clip-rule="evenodd" fill="#F37721" d="M53.7,8.4h-0.5v8.1H42.4c-0.2,0-0.4-0.2-0.4-0.4
			c0-0.2,0.2-0.4,0.4-0.4h10V7.5c0-0.1-0.1-0.2-0.2-0.2c0,0-2.8,0.2-5.6,0.5c-3.1,0.3-4.4,0.5-4.7,0.7c-0.4,0.2-0.6,0.5-0.6,1.1v7.2
			c0,0.3,0.3,0.6,0.6,0.6h11.7c0.1,0,0.2-0.1,0.2-0.2V8.6C53.9,8.5,53.8,8.4,53.7,8.4z"/>
		<path fill-rule="evenodd" clip-rule="evenodd" fill="#FFFFFF" d="M48.9,13.4c0,0,2,0,2.7,0c0.9,0,2.3,0.3,2.3,1.7
			c0,0,0.3-0.6,0.3-0.9c0-0.2,0-2.2,0-2.4c0-0.4-0.2-1.4-2.1-1.4c-1.3,0-3.2,0-3.2,0l-0.6,1c0,0-0.1,0.3,0.1,0.7
			C48.6,12.6,48.9,13.4,48.9,13.4z"/>
		<path fill-rule="evenodd" clip-rule="evenodd" fill="#F37721" d="M48.9,12.9h3.1c0,0,1.9-0.1,1.9,1.2c0,0,0.3-0.1,0.3-0.3
			c0-0.2,0-2.2,0-2.4c0-0.4-0.2-1.4-2.1-1.4c-1.3,0-3.2,0-3.2,0l-0.6,1.5L48.9,12.9z"/>
		<rect x="53.2" y="9.8" fill-rule="evenodd" clip-rule="evenodd" fill="#F37721" width="0.8" height="5.7"/>
		<circle fill-rule="evenodd" clip-rule="evenodd" fill="#FFFFFF" cx="50.4" cy="11.4" r="0.7"/>
	</g>
	<path fill-rule="evenodd" clip-rule="evenodd" fill="#231F20" d="M18.9,7.6c-0.2,0-0.3-0.2-0.3-0.2l-1-2.3l0.9-1.7
		c0,0,0.1-0.2,0.3-0.2c0.1,0,0.1,0,0.2,0V2.8h-1.4v0.4c0,0,0,0,0.2,0c0.2,0,0.1,0.2,0.1,0.2l-0.5,1.1l-0.5-1.1c0,0-0.1-0.2,0.1-0.2
		c0.2,0,0.2,0,0.2,0V2.8h-1.6v0.4c0,0,0,0,0.2,0c0.2,0,0.3,0.2,0.3,0.2l0.9,2l-1,2c0,0-0.1,0.2-0.3,0.2c-0.2,0-0.1,0-0.1,0V8h1.3
		V7.6c0,0,0,0-0.2,0c-0.2,0-0.1-0.2-0.1-0.2l0.7-1.4l0.6,1.4c0,0,0.1,0.2-0.1,0.2c-0.2,0-0.2,0-0.2,0V8H19V7.6
		C19,7.6,19,7.6,18.9,7.6z"/>
	<path fill-rule="evenodd" clip-rule="evenodd" fill="#ED3424" d="M4.7,0.4c0.2,0,0.3,0,0.3,0V0c0,0-1.4,0-1.7,0
		C3.1,0,1.1-0.1,1.1,1.9c0,0.2,0-0.1,0,0.1c0,1,0.7,1.7,1.2,1.9C2.1,4,1.9,4.2,1.8,4.3C1.5,4.7,1.4,5.1,1.3,5.8
		C1.2,6.6,1.2,7.3,0.9,7.5C0.8,7.6,0.7,7.6,0.5,7.6l0,0.3c0.2,0.1,0.4,0.1,0.6,0.1c0.7-0.1,1-0.8,1.1-1.3c0.2-1,0.1-2.5,1-2.9l0.3,0
		v3.5c0,0,0,0.2-0.2,0.2S3,7.6,3,7.6V8h2V7.6c0,0-0.1,0-0.3,0c-0.2,0-0.2-0.2-0.2-0.2V0.6C4.5,0.6,4.5,0.4,4.7,0.4L4.7,0.4L4.7,0.4z
		 M3.5,3.5H3.3C3,3.5,2,3.5,2,2l0-0.6C2,0.4,3,0.4,3.4,0.4h0.2V3.5z"/>
	<path fill-rule="evenodd" clip-rule="evenodd" fill="#231F20" d="M15.3,5.6h0.3c0-0.1,0-0.2,0-0.3c0-1.5-0.4-2.7-1.5-2.7
		c-1.1,0-1.5,1.2-1.5,2.7C12.6,6.9,13,8,14.1,8c0.8,0,1.3-0.7,1.4-1.7h-0.8c-0.1,0.8-0.2,1.2-0.6,1.2c-0.6,0-0.7-0.8-0.7-2h1.4H15.3
		L15.3,5.6z M14.1,3.1c0.6,0,0.7,0.8,0.7,1.9l-1.4,0C13.4,3.9,13.5,3.1,14.1,3.1z"/>
	<path fill-rule="evenodd" clip-rule="evenodd" fill="#231F20" d="M12.3,7.6c-0.2,0-0.2-0.2-0.2-0.2V0h-1.2v0.4h0.4v2.5
		c-0.2-0.2-0.4-0.2-0.7-0.2C9.5,2.7,9,3.9,9,5.4C9,6.9,9.4,8,10.5,8c0.3,0,0.6-0.1,0.8-0.5L11.5,8h0.6h0.4V7.6
		C12.5,7.6,12.5,7.6,12.3,7.6L12.3,7.6L12.3,7.6z M10.5,7.6c-0.6,0-0.6-0.9-0.6-2.2c0-1.3,0-2.2,0.6-2.2c0.8,0,0.7,0.9,0.7,2.2
		C11.2,6.5,11.3,7.6,10.5,7.6z"/>
	<path fill-rule="evenodd" clip-rule="evenodd" fill="#231F20" d="M8.7,7.6c-0.2,0-0.2-0.2-0.2-0.2c0,0,0-3.4,0-3.6
		c0-0.4-0.1-1.1-1.1-1.1c-0.6,0-0.8,0.4-0.9,0.5L6.2,2.7h-1v0.4h0.4v4.2c0,0,0,0.2-0.2,0.2c-0.2,0-0.2,0-0.2,0V8h1.7V7.6
		c0,0,0,0-0.2,0c-0.2,0-0.2-0.2-0.2-0.2V4.3c0-0.4,0-0.5,0.1-0.6c0.1-0.2,0.2-0.5,0.6-0.5c0.4,0,0.5,0.4,0.5,0.6c0,0.1,0,3.6,0,3.6
		c0,0,0,0.2-0.2,0.2c-0.2,0-0.2,0-0.2,0V8h1.7V7.6C8.9,7.6,8.9,7.6,8.7,7.6z"/>
</g>
</svg>
