<?xml version="1.0" encoding="utf-8"?>
<!-- Generator: Adobe Illustrator 17.1.0, SVG Export Plug-In . SVG Version: 6.00 Build 0)  -->
<!DOCTYPE svg PUBLIC "-//W3C//DTD SVG 1.1//EN" "http://www.w3.org/Graphics/SVG/1.1/DTD/svg11.dtd">
<svg version="1.1" id="Слой_1" xmlns="http://www.w3.org/2000/svg" xmlns:xlink="http://www.w3.org/1999/xlink" x="0px" y="0px"
	 viewBox="1.1 6.5 48 10.5" enable-background="new 1.1 6.5 48 10.5" xml:space="preserve">
<g>
	<path fill="#FFFFFF" d="M16.9,11.3v3.5c0,0.1,0,0.2,0,0.2c0.2,0.7,2.3,0.7,2.5,0c0-0.1,0-0.1,0-0.2v-3.5
		C19.4,10.4,16.9,10.4,16.9,11.3z"/>
	<path fill="#FFFFFF" d="M39.2,10.8c-0.5-0.3-1.5-0.3-2,0c-0.2,0.1-0.3,0.3-0.3,0.5v2c0.9,0,1.7,0,2.6,0v-2
		C39.6,11.1,39.4,10.9,39.2,10.8z"/>
	<path fill="#FFFFFF" d="M24.1,14.8c0,0.4-0.2,0.7-0.5,0.9c-0.3,0.2-0.7,0.2-1.2,0.2h-0.1c-0.4,0-0.9-0.1-1.2-0.2
		c-0.3-0.2-0.5-0.5-0.5-0.9v-4.5h0.4v4.5c0,0.2,0.1,0.4,0.3,0.5c0.2,0.1,0.6,0.2,0.9,0.2h0.1v0c0.4,0,0.7,0,1-0.2
		c0.2-0.1,0.3-0.3,0.3-0.5v-4.6h0.4L24.1,14.8L24.1,14.8z M27.5,15.6c-0.5,0.4-1.4,0.4-2,0.2c-0.5-0.2-0.8-0.5-0.8-1h0.4
		c0,0.3,0.3,0.6,0.6,0.7c0.5,0.1,1.1,0.2,1.6-0.2c0.2-0.2,0.4-0.4,0.4-0.8c0-0.9-0.7-1.2-1.4-1.4c-0.5-0.1-0.9-0.3-1.2-0.6
		c-0.5-0.5-0.4-1.5,0.1-2c0.7-0.7,2.7-0.5,2.7,0.6h-0.4c0-0.8-1.5-0.8-2-0.3c-0.3,0.3-0.4,1-0.1,1.4c0.2,0.3,0.7,0.4,1,0.5
		c0.9,0.2,1.7,0.6,1.7,1.7C28,15,27.8,15.4,27.5,15.6z M31.6,10.7H29v2.2h2.5v0.4H29c0,0.2,0,1.5,0,1.7c0.1,0.4,0.7,0.5,1.1,0.5h1.5
		v0.4h-1.5c-0.7,0-1.5-0.3-1.5-1.1v-4.5c1,0,2,0,3,0L31.6,10.7L31.6,10.7z M35.8,14.9L35.8,14.9c0,0.5-0.4,0.9-0.9,1
		c-0.4,0.1-1.1,0.1-1.6,0c-0.5-0.1-0.9-0.5-0.9-1v-3.6c0-0.6,0.5-0.9,1.1-1c0.4-0.1,1.1-0.1,1.5,0.1c0.5,0.2,0.8,0.5,0.8,1h-0.4
		c0-0.3-0.2-0.5-0.5-0.6c-0.4-0.1-0.9-0.1-1.3-0.1c-0.4,0.1-0.7,0.3-0.7,0.7v3.6c0,0.3,0.3,0.5,0.6,0.6c0.4,0.1,1,0.1,1.3,0
		c0.3-0.1,0.6-0.3,0.6-0.6v-1.4h-1.1v-0.4h1.5L35.8,14.9L35.8,14.9z M45.2,15.9h-0.4v-4.5l0.1-0.6h0l-0.2,0.5l-1.5,3.2h-0.3
		l-1.5-3.2l-0.2-0.5h0l0.1,0.6v4.5h-0.4v-5.6c0.2,0,0.3,0,0.5,0L43,14l1.7-3.7c0.2,0,0.3,0,0.5,0L45.2,15.9L45.2,15.9z M49.1,10.7
		h-2.6v2.2h2.5v0.4h-2.6c0,0.2,0,1.5,0,1.7c0.1,0.4,0.7,0.5,1.1,0.5h1.5v0.4h-1.5c-0.7,0-1.5-0.3-1.5-1.1v-4.5c1,0,2,0,3,0
		L49.1,10.7L49.1,10.7z"/>
	<path fill="#CFCFCF" d="M11.4,6.5l-3.1,3.9L5.1,6.5h-4V17h14.4V6.5H11.4z M13.2,13.2c-0.2,0.7-1.1,1.2-2,1.4
		c0.2,0.2,0.3,0.5,0.2,0.8c0,0.4-0.2,1.3-0.6,1.6H5.5C5.2,16.6,5,15.8,5,15.4c0-0.3,0.1-0.6,0.2-0.9c-0.9-0.2-1.8-0.6-2-1.4
		c-0.6-2.5,2.6-3.1,3.3-1.5c0.2,0.5,0.4,1.3,0.5,2c0.3-0.1,0.6-0.1,0.9-0.1c0.1,0,0.2,0,0.3,0c0.1,0,0.2,0,0.3,0
		c0.3,0,0.6,0.1,0.9,0.1c0.1-0.7,0.2-1.5,0.5-2C10.6,10.1,13.9,10.8,13.2,13.2z"/>
	<path fill="#CFCFCF" d="M16.5,11.3v3.6c0,1.5,3.4,1.5,3.4,0v-3.6C19.9,9.9,16.5,9.9,16.5,11.3z M19.4,15c-0.2,0.7-2.3,0.7-2.5,0
		c0-0.1,0-0.1,0-0.2v-3.5c0-0.9,2.6-0.9,2.6,0v3.5h0C19.4,14.9,19.4,15,19.4,15z"/>
	<path fill="#CFCFCF" d="M23.7,14.8c0,0.2-0.1,0.4-0.3,0.5c-0.2,0.1-0.6,0.2-1,0.2v0h-0.1c-0.3,0-0.7-0.1-0.9-0.2
		c-0.2-0.1-0.3-0.3-0.3-0.5v-4.5h-0.4v4.5c0,0.4,0.2,0.7,0.5,0.9c0.3,0.2,0.7,0.2,1.2,0.2h0.1c0.4,0,0.9-0.1,1.2-0.2
		c0.3-0.2,0.5-0.5,0.5-0.9v-4.5h-0.4L23.7,14.8L23.7,14.8z"/>
	<path fill="#CFCFCF" d="M26.3,12.8c-0.4-0.1-0.8-0.2-1-0.5c-0.3-0.4-0.2-1.1,0.1-1.4c0.5-0.5,2-0.5,2,0.3h0.4c0-1.2-2-1.3-2.7-0.6
		c-0.5,0.5-0.6,1.5-0.1,2c0.3,0.3,0.7,0.4,1.2,0.6c0.7,0.2,1.4,0.5,1.4,1.4c0,0.3-0.2,0.6-0.4,0.8c-0.4,0.4-1,0.4-1.6,0.2
		c-0.3-0.1-0.6-0.4-0.6-0.7h-0.4c0,0.5,0.3,0.9,0.8,1c0.6,0.2,1.5,0.2,2-0.2c0.3-0.2,0.5-0.6,0.5-1.1C28,13.4,27.3,13.1,26.3,12.8z"
		/>
	<path fill="#CFCFCF" d="M28.6,14.8c0,0.8,0.8,1.1,1.5,1.1h1.5v-0.4h-1.5c-0.4,0-0.9-0.1-1.1-0.5c-0.1-0.2,0-1.4,0-1.7h2.6v-0.4H29
		v-2.2h2.6v-0.4c-1,0-2,0-3,0L28.6,14.8L28.6,14.8z"/>
	<path fill="#CFCFCF" d="M34.3,13.5h1.1v1.4c0,0.3-0.3,0.5-0.6,0.6c-0.4,0.1-1,0.1-1.3,0c-0.4-0.1-0.6-0.3-0.6-0.6v-3.6
		c0-0.4,0.3-0.6,0.7-0.7c0.4-0.1,0.9-0.1,1.3,0.1c0.3,0.1,0.5,0.3,0.5,0.6h0.4c0-0.5-0.4-0.8-0.8-1c-0.4-0.2-1-0.2-1.5-0.1
		c-0.6,0.1-1.1,0.5-1.1,1v3.6c0,0.5,0.4,0.9,0.9,1c0.4,0.1,1.1,0.1,1.6,0c0.5-0.1,0.9-0.5,0.9-1h0v-1.7h-1.5L34.3,13.5L34.3,13.5z"
		/>
	<path fill="#CFCFCF" d="M39.4,10.5c-0.6-0.4-1.8-0.4-2.4,0c-0.3,0.2-0.5,0.5-0.5,0.8c0,1.4,0,3.1,0,4.6H37c0-0.8,0-1.3,0-2.2
		c0.9,0,1.7,0,2.6,0v2.2H40v-4.6C40,10.9,39.7,10.7,39.4,10.5z M39.6,13.3c-0.9,0-1.7,0-2.6,0v-2c0-0.2,0.1-0.4,0.3-0.5
		c0.5-0.3,1.5-0.3,2,0c0.2,0.1,0.3,0.3,0.3,0.5V13.3z"/>
	<path fill="#CFCFCF" d="M43,14l-1.7-3.7c-0.2,0-0.3,0-0.5,0v5.6h0.4v-4.5l-0.1-0.6h0l0.2,0.5l1.5,3.2h0.3l1.5-3.2l0.2-0.5h0
		l-0.1,0.6v4.5h0.4v-5.6c-0.2,0-0.3,0-0.5,0L43,14z"/>
	<path fill="#CFCFCF" d="M46.1,14.8c0,0.8,0.8,1.1,1.5,1.1h1.5v-0.4h-1.5c-0.4,0-0.9-0.1-1.1-0.5c-0.1-0.2,0-1.4,0-1.7h2.6v-0.4
		h-2.5v-2.2h2.6v-0.4c-1,0-2,0-3,0L46.1,14.8L46.1,14.8z"/>
</g>
</svg>
