<?xml version="1.0" encoding="utf-8"?>
<!-- Generator: Adobe Illustrator 17.1.0, SVG Export Plug-In . SVG Version: 6.00 Build 0)  -->
<!DOCTYPE svg PUBLIC "-//W3C//DTD SVG 1.1//EN" "http://www.w3.org/Graphics/SVG/1.1/DTD/svg11.dtd">
<svg version="1.1" id="Layer_1" xmlns="http://www.w3.org/2000/svg" xmlns:xlink="http://www.w3.org/1999/xlink" x="0px" y="0px"
	 viewBox="0 0 43 18" enable-background="new 0 0 43 18" xml:space="preserve">
<g display="none">
	<g display="inline">
		<g>
			<path fill="#C8573B" d="M8.1,23.7c1.4,0,2.3-1.4,2-3.2c-0.2-1.8-1.5-3.2-2.9-3.2c-1.4,0-2.3,1.3-2,3.1
				C5.5,22.2,6.8,23.7,8.1,23.7z"/>
			<path fill="#C8573B" d="M33.6,12.8H4.2c-0.5,0-0.8,0.4-0.8,0.8V20c0.3-1.9,2.3-3.4,4.5-3.4c1.3,0,5.3,0,5.3,0L12,17.5h-1.7
				c1.1,0.4,1.7,1.7,1.7,3c0,1.1-0.6,2.1-1.5,2.7c-0.8,0.7-1,0.9-1,1.5c0,0.5,0.9,1.3,1.4,1.6c1.4,1,1.8,1.9,1.8,3.4
				c0,0.3-0.1,0.6-0.2,1h21c0.5,0,0.8-0.4,0.8-0.8V13.6C34.4,13.1,34,12.8,33.6,12.8z M20.7,20v1.1h-3.2v3.2h-1.3v-3.2H13v-1.3h3.2
				v-3.2h1.3v3.2h3.2V20z"/>
			<path fill="#C8573B" d="M9.2,27.4c-0.4-0.1-0.8-0.2-1.3-0.2c-2,0-3.8,1.2-3.8,2.7c0,0.3,0.1,0.6,0.2,0.8h7.1
				c0.1-0.2,0.1-0.5,0.1-0.7c0-0.2,0-0.4-0.1-0.5C11.1,28.6,10.3,28.2,9.2,27.4z"/>
		</g>
		<path fill="#C8573B" d="M8.3,26.7c-0.4-0.4-0.7-0.9-0.7-1.5c0-0.3,0.1-0.7,0.3-1c-0.2,0-0.3,0-0.5,0c-2.1,0-3.7-1.4-3.9-3.2v7
			c0.9-0.8,2.3-1.4,4-1.4C7.7,26.7,8,26.7,8.3,26.7z"/>
	</g>
	<text transform="matrix(1 0 0 1 23.3152 25.5204)" display="inline" fill="#EFEFEF" font-family="'TrebuchetMS'" font-size="12">4</text>
</g>
<g display="none">
	<g display="inline">
		<path fill="#4D75A3" d="M10.1,9.9H8.6v2.2h1.6c0.5,0,0.9-0.1,1.1-0.3c0.2-0.2,0.3-0.5,0.3-0.8c0-0.3-0.1-0.6-0.3-0.8
			C11.1,10,10.7,9.9,10.1,9.9z"/>
		<path fill="#4D75A3" d="M10.9,7.6c0.2-0.2,0.3-0.4,0.3-0.8c0-0.3-0.1-0.6-0.3-0.8c-0.2-0.2-0.5-0.3-1-0.3H8.6v2.1h1.4
			C10.4,7.8,10.7,7.7,10.9,7.6z"/>
		<path fill="#4D75A3" d="M42,0H1C0.4,0,0,0.4,0,1v16c0,0.6,0.4,1,1,1h41c0.6,0,1-0.4,1-1V1C43,0.4,42.6,0,42,0z M14.4,12.9
			c-0.2,0.5-0.6,0.8-1,1.1c-0.3,0.2-0.7,0.3-1.2,0.4c-0.7,0.1-1.2,0.2-1.4,0.2H5.4v-11h5.8c1,0,1.7,0.3,2.2,0.8
			c0.5,0.5,0.8,1.2,0.8,1.9c0,0.7-0.2,1.2-0.6,1.7c-0.2,0.3-0.6,0.6-1.1,0.7c0.7,0.2,1.3,0.5,1.6,1c0.3,0.5,0.5,1,0.5,1.7
			C14.7,12,14.6,12.5,14.4,12.9z"/>
	</g>
	<text transform="matrix(1 0 0 1 19.9076 12.7602)" display="inline" fill="#EFEFEF" font-family="'TrebuchetMS'" font-size="12">149</text>
</g>
<g display="none">
	<path display="inline" fill="#475D87" d="M36,0H1C0.4,0,0,0.4,0,1v16c0,0.6,0.4,1,1,1h35c0.6,0,1-0.4,1-1V1C37,0.4,36.6,0,36,0z
		 M11.5,8.8L11.5,8.8c-0.1,0-1.8,0-1.8,0c0,0,0,0,0,0c0,0,0,1.6,0,1.6c0,1.6,0,3.3,0,4.9H7.1l0-6.1c0-0.1,0-0.3,0-0.4l-1.3,0l0-2.2
		l1.3,0c0-3.5,0.2-2.7,0.8-3.7c0.4-0.3,1-0.5,1.6-0.6c0.4,0,0.7,0,1.1,0c0.4,0,0.8,0,1.1,0l0,2.2L9.9,4.7C9.8,4.9,9.8,5.3,9.8,5.6
		c0,0.3,0,0.7,0,1h2L11.5,8.8z"/>
	<text transform="matrix(1 0 0 1 18.9076 12.7602)" display="inline" fill="#EFEFEF" font-family="'TrebuchetMS'" font-size="12">64</text>
</g>
<g>
	<path fill="#5292C7" d="M30,0H1C0.4,0,0,0.4,0,1v16c0,0.6,0.4,1,1,1h29c0.6,0,1-0.4,1-1V1C31,0.4,30.6,0,30,0z M7.9,11.8h4.1
		c0.9,0,1.6,0.8,1.6,1.7c0,0.9-0.7,1.7-1.6,1.7H8c0,0-0.1,0-0.1,0c-2.3-0.1-3.4-1.7-3.4-3.8c0,0,0,0,0-0.1V4c0-0.9,0.7-1.7,1.6-1.7
		C6.9,2.3,7.6,3,7.6,4v1.7h4.3c0.9,0,1.6,0.8,1.6,1.7c0,0.9-0.7,1.7-1.6,1.7H7.6v2.5C7.6,11.7,7.7,11.8,7.9,11.8z"/>
	<text transform="matrix(1 0 0 1 19.9076 13.7602)" fill="#EFEFEF" font-family="'TrebuchetMS'" font-size="12">7</text>
</g>
</svg>
