<?xml version="1.0" encoding="utf-8"?>
<!-- Generator: Adobe Illustrator 17.1.0, SVG Export Plug-In . SVG Version: 6.00 Build 0)  -->
<!DOCTYPE svg PUBLIC "-//W3C//DTD SVG 1.1//EN" "http://www.w3.org/Graphics/SVG/1.1/DTD/svg11.dtd">
<svg version="1.1" id="Layer_1" xmlns="http://www.w3.org/2000/svg" xmlns:xlink="http://www.w3.org/1999/xlink" x="0px" y="0px"
	 viewBox="0 0 71 88" enable-background="new 0 0 71 88" xml:space="preserve">
<g opacity="0.7">
	<rect y="44" fill="#CCCCCC" width="71" height="44"/>
	<linearGradient id="SVGID_1_" gradientUnits="userSpaceOnUse" x1="35.5" y1="-1.594344e-009" x2="35.5" y2="44">
		<stop  offset="0.1777" style="stop-color:#F3F3F2"/>
		<stop  offset="0.9494" style="stop-color:#FAFAFB"/>
	</linearGradient>
	<rect fill="url(#SVGID_1_)" width="71" height="44"/>
</g>
</svg>
