<?xml version="1.0" encoding="utf-8"?>
<!-- Generator: Adobe Illustrator 17.0.0, SVG Export Plug-In . SVG Version: 6.00 Build 0)  -->
<!DOCTYPE svg PUBLIC "-//W3C//DTD SVG 1.1//EN" "http://www.w3.org/Graphics/SVG/1.1/DTD/svg11.dtd">
<svg version="1.1" id="icons" xmlns="http://www.w3.org/2000/svg" xmlns:xlink="http://www.w3.org/1999/xlink" x="0px" y="0px"
	 width="1000px" height="1000px" viewBox="0 0 1000 1000" enable-background="new 0 0 1000 1000" xml:space="preserve">
<path fill-rule="evenodd" clip-rule="evenodd" fill="#231F20" d="M130.461,2.317h739.077c44.25,0,80.462,36.209,80.462,80.466
	v834.432c0,44.258-36.211,80.467-80.462,80.467H130.461c-44.25,0-80.461-36.209-80.461-80.467V82.783
	C50,38.526,86.211,2.317,130.461,2.317L130.461,2.317L130.461,2.317z M452.481,168.687
	c-55.32,22.628-101.908,61.919-138.728,110.249c-61.37,80.548-95.609,186.217-97.921,281.734
	c-1.53,63.047,3.826,135.462,38.744,188.256c34.348,51.937,93.032,83.707,155.625,84.187
	c113.18,0.872,175.409-92.756,177.001-196.454c0.601-38.742-4.679-78.231-20.339-112.775
	c-40.111-88.483-119.683-135.221-210.145-94.478c21.469-76.351,76.013-144.461,159.104-185.719
	C492.371,217.104,475.934,195.267,452.481,168.687L452.481,168.687z M403.444,514.851c-41.973,0-76.014,48.5-76.014,108.304
	s34.041,108.304,76.014,108.304c41.978,0,76.018-48.5,76.018-108.304S445.422,514.851,403.444,514.851L403.444,514.851z
	 M666.672,385.516v77.096h-77.096v46.502h77.096v77.091h46.502v-77.091h77.092v-46.502h-77.092v-77.096H666.672z"/>
</svg>
