<?xml version="1.0" encoding="utf-8"?>
<!-- Generator: Adobe Illustrator 17.1.0, SVG Export Plug-In . SVG Version: 6.00 Build 0)  -->
<!DOCTYPE svg PUBLIC "-//W3C//DTD SVG 1.1//EN" "http://www.w3.org/Graphics/SVG/1.1/DTD/svg11.dtd">
<svg version="1.1" id="Слой_1" xmlns="http://www.w3.org/2000/svg" xmlns:xlink="http://www.w3.org/1999/xlink" x="0px" y="0px"
	 viewBox="0 0 28.3 21.3" enable-background="new 0 0 28.3 21.3" xml:space="preserve">
<polygon fill-rule="evenodd" clip-rule="evenodd" fill="#39B54A" points="0,8.2 10.6,21.3 28.3,0 10.7,14.2 "/>
</svg>
