<?xml version="1.0" encoding="utf-8"?>
<!-- Generator: Adobe Illustrator 17.1.0, SVG Export Plug-In . SVG Version: 6.00 Build 0)  -->
<!DOCTYPE svg PUBLIC "-//W3C//DTD SVG 1.1//EN" "http://www.w3.org/Graphics/SVG/1.1/DTD/svg11.dtd">
<svg version="1.1" id="Слой_1" xmlns="http://www.w3.org/2000/svg" xmlns:xlink="http://www.w3.org/1999/xlink" x="0px" y="0px"
	 viewBox="0 0 42.5 25.4" enable-background="new 0 0 42.5 25.4" xml:space="preserve">
<g>
	<path fill-rule="evenodd" clip-rule="evenodd" fill="#ED1C2E" d="M25.4,12.7c0,7-5.7,12.7-12.7,12.7C5.7,25.4,0,19.7,0,12.7
		C0,5.7,5.7,0,12.7,0C19.7,0,25.4,5.7,25.4,12.7L25.4,12.7z"/>
	<path fill-rule="evenodd" clip-rule="evenodd" fill="#FCB131" d="M29.8,0c-3.3,0-6.3,1.2-8.5,3.3c-0.5,0.4-0.9,0.9-1.3,1.3h2.6
		c0.4,0.4,0.7,0.9,1,1.3H19c-0.3,0.4-0.5,0.9-0.7,1.3h6c0.2,0.4,0.4,0.9,0.5,1.3h-7c-0.1,0.4-0.3,0.9-0.4,1.3h7.8
		c0.2,0.9,0.3,1.8,0.3,2.7c0,1.4-0.2,2.8-0.7,4h-7c0.2,0.5,0.3,0.9,0.5,1.3h6c-0.2,0.5-0.5,0.9-0.7,1.3H19c0.3,0.5,0.6,0.9,1,1.3
		h2.6c-0.4,0.5-0.8,0.9-1.3,1.3c2.3,2,5.2,3.3,8.5,3.3c7,0,12.7-5.7,12.7-12.7C42.5,5.7,36.8,0,29.8,0L29.8,0z"/>
	<path fill-rule="evenodd" clip-rule="evenodd" fill="#FCB131" d="M41.2,19.8L41.2,19.8C41.2,19.8,41.2,19.8,41.2,19.8
		c0.1,0,0.1,0,0.1,0C41.3,19.7,41.3,19.7,41.2,19.8C41.2,19.7,41.2,19.7,41.2,19.8L41.2,19.8L41.2,19.8L41.2,19.8z M41.2,20L41.2,20
		l-0.1-0.4h0.2c0,0,0.1,0,0.1,0c0,0,0,0.1,0,0.1c0,0,0,0.1-0.1,0.1l0.1,0.2h-0.1l-0.1-0.1h-0.1V20L41.2,20z M41.2,20.1L41.2,20.1
		c-0.2,0-0.3-0.1-0.3-0.3c0-0.2,0.1-0.3,0.3-0.3c0.2,0,0.3,0.1,0.3,0.3C41.5,20,41.4,20.1,41.2,20.1L41.2,20.1z M40.8,19.8
		c0-0.2,0.2-0.4,0.4-0.4c0.2,0,0.4,0.2,0.4,0.4c0,0.2-0.2,0.4-0.4,0.4C41,20.2,40.8,20,40.8,19.8L40.8,19.8z"/>
	<path fill-rule="evenodd" clip-rule="evenodd" fill="#003473" d="M10.7,16.4c-0.2,0-1.1,0-1.1,0l0-0.5c-0.3,0.4-0.8,0.6-1.4,0.6
		c-0.7,0-1.3-0.6-1.3-1.4c0-1.3,0.9-2,2.4-2c0.2,0,0.4,0,0.6,0c0-0.2,0.1-0.2,0.1-0.3c0-0.3-0.2-0.5-0.9-0.5c-0.7,0-1.2,0.2-1.5,0.2
		c0-0.1,0.2-1.2,0.2-1.2c0.7-0.2,1.1-0.3,1.7-0.3c1.2,0,1.8,0.5,1.8,1.5c0,0.3,0,0.6-0.1,1C11,14.4,10.8,16,10.7,16.4L10.7,16.4
		L10.7,16.4z M9.7,14.1c-0.1,0-0.2,0-0.3,0c-0.8,0-1.2,0.3-1.2,0.8c0,0.3,0.2,0.5,0.5,0.5C9.3,15.4,9.7,14.9,9.7,14.1L9.7,14.1z"/>
	<polygon fill-rule="evenodd" clip-rule="evenodd" fill="#003473" points="6.3,16.4 5,16.4 5.8,11.5 4,16.4 3.1,16.4 2.9,11.5 
		2.1,16.4 0.8,16.4 1.9,10 3.9,10 4,13.6 5.2,10 7.4,10 	"/>
	<path fill-rule="evenodd" clip-rule="evenodd" fill="#003473" d="M32.5,16.4c-0.2,0-1.1,0-1.1,0l0-0.5c-0.3,0.4-0.8,0.6-1.4,0.6
		c-0.7,0-1.3-0.6-1.3-1.4c0-1.3,0.9-2,2.4-2c0.2,0,0.4,0,0.6,0c0-0.2,0.1-0.2,0.1-0.3c0-0.3-0.2-0.5-0.9-0.5c-0.7,0-1.2,0.2-1.5,0.2
		c0-0.1,0.2-1.2,0.2-1.2c0.7-0.2,1.1-0.3,1.7-0.3c1.2,0,1.8,0.5,1.8,1.5c0,0.3,0,0.6-0.1,1C32.8,14.4,32.5,16,32.5,16.4L32.5,16.4
		L32.5,16.4z M31.5,14.1c-0.1,0-0.2,0-0.3,0c-0.8,0-1.2,0.3-1.2,0.8c0,0.3,0.2,0.5,0.5,0.5C31.1,15.4,31.5,14.9,31.5,14.1L31.5,14.1
		z"/>
	<path fill-rule="evenodd" clip-rule="evenodd" fill="#003473" d="M16.9,16.4c-0.4,0.1-0.7,0.2-1,0.2c-0.7,0-1.1-0.4-1.1-1.2
		c0-0.2,0.1-0.8,0.2-1.4c0.1-0.5,0.6-3.6,0.6-3.6H17l-0.2,0.8h0.8l-0.2,1.3h-0.8c-0.2,1-0.4,2.2-0.4,2.4c0,0.3,0.1,0.4,0.5,0.4
		c0.2,0,0.3,0,0.4,0L16.9,16.4z"/>
	<path fill-rule="evenodd" clip-rule="evenodd" fill="#003473" d="M20.3,13.2c0-0.1,0.1-0.9-0.6-0.9c-0.4,0-0.7,0.3-0.9,0.9H20.3
		L20.3,13.2z M21.1,16.3c-0.5,0.1-0.9,0.2-1.4,0.2c-1.5,0-2.3-0.8-2.3-2.3c0-1.8,1-3.1,2.4-3.1c1.1,0,1.9,0.7,1.9,1.9
		c0,0.4,0,0.8-0.2,1.3h-2.7c-0.1,0.8,0.4,1.1,1.2,1.1c0.5,0,0.9-0.1,1.4-0.3L21.1,16.3z"/>
	<path fill-rule="evenodd" clip-rule="evenodd" fill="#003473" d="M11.6,12.9c0,0.7,0.3,1.1,1.1,1.5c0.6,0.3,0.6,0.3,0.6,0.6
		c0,0.3-0.2,0.5-0.8,0.5c-0.4,0-0.8-0.1-1.2-0.2c0,0-0.2,1.2-0.2,1.2c0.3,0.1,0.6,0.1,1.4,0.2c1.5,0,2.1-0.6,2.1-1.8
		c0-0.7-0.3-1.1-1-1.5C13.1,13.1,13,13,13,12.7c0-0.3,0.2-0.4,0.7-0.4c0.3,0,0.6,0,1,0.1l0.2-1.2c-0.4-0.1-0.9-0.1-1.2-0.1
		C12.1,11.1,11.6,11.9,11.6,12.9L11.6,12.9z"/>
	<path fill-rule="evenodd" clip-rule="evenodd" fill="#003473" d="M27.8,11.2c0.4,0,0.7,0.1,1.2,0.3l0.2-1.4
		c-0.2-0.1-0.9-0.5-1.5-0.5c-0.9,0-1.7,0.5-2.3,1.2c-0.8-0.3-1.1,0.3-1.5,0.8l-0.4,0.1c0-0.2,0.1-0.4,0-0.5h-1.3
		c-0.2,1.6-0.5,3.3-0.7,4.9l-0.1,0.4H23c0.2-1.5,0.4-2.5,0.4-3.1l0.5-0.3c0.1-0.3,0.3-0.4,0.8-0.4c-0.1,0.3-0.1,0.7-0.1,1.1
		c0,1.7,0.9,2.8,2.4,2.8c0.4,0,0.7-0.1,1.2-0.2l0.2-1.5c-0.5,0.2-0.8,0.3-1.2,0.3c-0.8,0-1.3-0.6-1.3-1.6
		C26,12.2,26.8,11.2,27.8,11.2L27.8,11.2z"/>
	<path fill-rule="evenodd" clip-rule="evenodd" fill="#003473" d="M37.8,15.2c-0.5,0-0.7-0.3-0.7-1c0-1,0.4-1.8,1.1-1.8
		c0.5,0,0.7,0.4,0.7,1C38.9,14.5,38.4,15.2,37.8,15.2L37.8,15.2L37.8,15.2z M39.5,10l-0.3,1.9c-0.4-0.5-0.8-0.9-1.3-0.9
		c-0.7,0-1.3,0.5-1.7,1.3c-0.6-0.1-1.2-0.3-1.2-0.3l0,0c0-0.4,0.1-0.7,0.1-0.8h-1.3c-0.2,1.6-0.5,3.3-0.7,4.9L33,16.4h1.4
		c0.2-1.2,0.3-2.2,0.4-3c0.5-0.4,0.7-0.8,1.2-0.8c-0.2,0.5-0.3,1.1-0.3,1.7c0,1.3,0.7,2.2,1.7,2.2c0.5,0,0.9-0.2,1.3-0.6l-0.1,0.5
		h1.3l1.1-6.4H39.5z"/>
	<polygon fill-rule="evenodd" clip-rule="evenodd" fill="#FFFFFF" points="6.7,16.1 5.4,16.1 6.2,11.1 4.4,16.1 3.4,16.1 3.3,11.1 
		2.5,16.1 1.2,16.1 2.3,9.6 4.3,9.6 4.3,13.6 5.7,9.6 7.8,9.6 	"/>
	<path fill-rule="evenodd" clip-rule="evenodd" fill="#FFFFFF" d="M11.1,16.1c-0.2,0-1.1,0-1.1,0l0-0.5c-0.3,0.4-0.8,0.6-1.4,0.6
		c-0.7,0-1.3-0.6-1.3-1.4c0-1.3,0.9-2,2.4-2c0.2,0,0.4,0,0.6,0c0-0.2,0.1-0.2,0.1-0.3c0-0.3-0.2-0.5-0.9-0.5c-0.7,0-1.2,0.2-1.5,0.2
		C8,12.1,8.2,11,8.2,11c0.7-0.2,1.1-0.3,1.7-0.3c1.2,0,1.8,0.5,1.8,1.5c0,0.3,0,0.6-0.1,1C11.4,14,11.2,15.7,11.1,16.1L11.1,16.1
		L11.1,16.1z M10.1,13.7c-0.1,0-0.2,0-0.3,0c-0.8,0-1.2,0.3-1.2,0.8c0,0.3,0.2,0.5,0.5,0.5C9.7,15,10.1,14.5,10.1,13.7L10.1,13.7z"
		/>
	<path fill-rule="evenodd" clip-rule="evenodd" fill="#FFFFFF" d="M29.7,9.8l-0.2,1.4c-0.5-0.2-0.8-0.3-1.2-0.3c-1,0-1.8,1-1.8,2.4
		c0,1,0.5,1.6,1.3,1.6c0.3,0,0.7-0.1,1.2-0.3L28.7,16c-0.5,0.1-0.8,0.2-1.2,0.2c-1.5,0-2.4-1.1-2.4-2.8c0-2.3,1.3-3.9,3.1-3.9
		C28.7,9.4,29.5,9.7,29.7,9.8L29.7,9.8z"/>
	<path fill-rule="evenodd" clip-rule="evenodd" fill="#FFFFFF" d="M32.9,16.1c-0.2,0-1.1,0-1.1,0l0-0.5c-0.3,0.4-0.8,0.6-1.4,0.6
		c-0.7,0-1.3-0.6-1.3-1.4c0-1.3,0.9-2,2.4-2c0.2,0,0.4,0,0.6,0c0-0.2,0.1-0.2,0.1-0.3c0-0.3-0.2-0.5-0.9-0.5c-0.7,0-1.2,0.2-1.5,0.2
		c0-0.1,0.2-1.2,0.2-1.2c0.7-0.2,1.1-0.3,1.7-0.3c1.2,0,1.8,0.5,1.8,1.5c0,0.3,0,0.6-0.1,1C33.2,14,32.9,15.7,32.9,16.1L32.9,16.1
		L32.9,16.1z M31.9,13.7c-0.1,0-0.2,0-0.3,0c-0.8,0-1.2,0.3-1.2,0.8c0,0.3,0.2,0.5,0.5,0.5C31.5,15,31.9,14.5,31.9,13.7L31.9,13.7z"
		/>
	<path fill-rule="evenodd" clip-rule="evenodd" fill="#FFFFFF" d="M17.3,16c-0.4,0.1-0.7,0.2-1,0.2c-0.7,0-1.1-0.4-1.1-1.2
		c0-0.2,0.1-0.8,0.2-1.4C15.5,13.1,16,10,16,10h1.4l-0.2,0.8h0.7l-0.2,1.3H17c-0.2,1-0.4,2.2-0.4,2.4c0,0.3,0.1,0.4,0.5,0.4
		c0.2,0,0.3,0,0.4-0.1L17.3,16z"/>
	<path fill-rule="evenodd" clip-rule="evenodd" fill="#FFFFFF" d="M20.7,12.8c0-0.1,0.1-0.9-0.6-0.9c-0.4,0-0.7,0.3-0.9,0.9H20.7
		L20.7,12.8z M21.5,15.9c-0.5,0.1-0.9,0.2-1.4,0.2c-1.5,0-2.3-0.8-2.3-2.3c0-1.8,1-3.1,2.4-3.1c1.1,0,1.9,0.7,1.9,1.9
		c0,0.4-0.1,0.8-0.2,1.3h-2.7C19,14.6,19.5,15,20.3,15c0.5,0,0.9-0.1,1.4-0.3L21.5,15.9z"/>
	<path fill-rule="evenodd" clip-rule="evenodd" fill="#FFFFFF" d="M12,12.5c0,0.7,0.3,1.1,1.1,1.5c0.6,0.3,0.6,0.3,0.6,0.6
		c0,0.3-0.2,0.5-0.8,0.5c-0.4,0-0.8-0.1-1.2-0.2c0,0-0.2,1.2-0.2,1.2c0.3,0.1,0.6,0.1,1.4,0.2c1.5,0,2.1-0.6,2.1-1.8
		c0-0.7-0.3-1.1-1-1.5c-0.6-0.3-0.6-0.3-0.6-0.6c0-0.3,0.2-0.4,0.7-0.4c0.3,0,0.6,0,1,0.1l0.2-1.2c-0.4-0.1-0.9-0.1-1.2-0.1
		C12.5,10.7,12,11.5,12,12.5L12,12.5z"/>
	<path fill-rule="evenodd" clip-rule="evenodd" fill="#FFFFFF" d="M38.2,14.8c0.6,0,1.1-0.7,1.1-1.8c0-0.7-0.3-1-0.7-1
		c-0.6,0-1.1,0.7-1.1,1.8C37.4,14.5,37.7,14.8,38.2,14.8L38.2,14.8L38.2,14.8z M40.2,16.1h-1.3l0.1-0.5c-0.4,0.4-0.8,0.6-1.3,0.6
		c-1,0-1.7-0.9-1.7-2.2c0-1.7,1-3.2,2.2-3.2c0.5,0,0.9,0.2,1.3,0.7l0.3-1.9h1.4L40.2,16.1z"/>
	<path fill-rule="evenodd" clip-rule="evenodd" fill="#FFFFFF" d="M34.1,10.8c-0.2,1.6-0.5,3.3-0.7,4.9l-0.1,0.4h1.4
		c0.5-3.2,0.6-3.8,1.4-3.8c0.1-0.7,0.4-1.2,0.5-1.5c-0.6-0.1-0.9,0.2-1.3,0.8c0-0.3,0.1-0.5,0.1-0.8H34.1z"/>
	<path fill-rule="evenodd" clip-rule="evenodd" fill="#FFFFFF" d="M22.8,10.8c-0.2,1.6-0.5,3.3-0.7,4.9L22,16.1h1.4
		c0.5-3.2,0.6-3.8,1.4-3.8c0.1-0.7,0.4-1.2,0.5-1.5c-0.6-0.1-0.9,0.2-1.3,0.8c0-0.3,0.1-0.5,0.1-0.8H22.8z"/>
	<path fill-rule="evenodd" clip-rule="evenodd" fill="#FFFFFF" d="M41.2,15.6L41.2,15.6C41.2,15.6,41.2,15.6,41.2,15.6
		c0.1,0,0.1,0,0.1,0C41.3,15.6,41.3,15.5,41.2,15.6C41.2,15.5,41.2,15.5,41.2,15.6L41.2,15.6L41.2,15.6L41.2,15.6z M41.2,15.8
		L41.2,15.8l-0.1-0.4h0.2c0,0,0.1,0,0.1,0c0,0,0,0.1,0,0.1c0,0,0,0.1-0.1,0.1l0.1,0.2h-0.1l-0.1-0.1h-0.1V15.8L41.2,15.8z M41.2,16
		L41.2,16c-0.2,0-0.3-0.1-0.3-0.3c0-0.2,0.1-0.3,0.3-0.3c0.2,0,0.3,0.1,0.3,0.3C41.5,15.8,41.4,16,41.2,16L41.2,16z M40.8,15.6
		c0-0.2,0.2-0.4,0.4-0.4c0.2,0,0.4,0.2,0.4,0.4c0,0.2-0.2,0.4-0.4,0.4C41,16.1,40.8,15.9,40.8,15.6L40.8,15.6z"/>
</g>
</svg>
