<?xml version="1.0" encoding="utf-8"?>
<!-- Generator: Adobe Illustrator 17.1.0, SVG Export Plug-In . SVG Version: 6.00 Build 0)  -->
<!DOCTYPE svg PUBLIC "-//W3C//DTD SVG 1.1//EN" "http://www.w3.org/Graphics/SVG/1.1/DTD/svg11.dtd">
<svg version="1.1" id="Слой_1" xmlns="http://www.w3.org/2000/svg" xmlns:xlink="http://www.w3.org/1999/xlink" x="0px" y="0px"
	 viewBox="0 0 67.6 16.9" enable-background="new 0 0 67.6 16.9" xml:space="preserve">
<g>
	<g>
		<path fill-rule="evenodd" clip-rule="evenodd" fill="#0073B8" d="M59,0c1.3,0,2.6,0.3,3.7,0.9c0.2,0.1,0.4,0.2,0.5,0.3l-0.8,0.7
			l-1.2-1.2l-2,1.8l-1.2-1.3l-3.7,3.3L56.9,7l-0.9,0.8l2.3,2.6l-0.9,0.8l3.3,3.7l2-1.8l1.7,1.9c-0.3,0.3-0.7,0.5-1.1,0.7
			c-1.2,0.7-2.7,1.1-4.2,1.1c-4.7,0-8.4-3.8-8.4-8.4S54.4,0,59,0z"/>
		
			<rect x="58.1" y="6.7" transform="matrix(-0.743 0.6693 -0.6693 -0.743 108.9195 -25.7955)" fill-rule="evenodd" clip-rule="evenodd" fill="#0073B8" width="2.7" height="2.7"/>
		
			<rect x="59.5" y="10.1" transform="matrix(-0.7434 0.6689 -0.6689 -0.7434 113.7488 -20.6761)" fill-rule="evenodd" clip-rule="evenodd" fill="#0073B8" width="2.7" height="2.7"/>
		
			<rect x="56.6" y="3.2" transform="matrix(-0.7431 0.6692 -0.6692 -0.7431 104.124 -30.806)" fill-rule="evenodd" clip-rule="evenodd" fill="#0073B8" width="2.7" height="2.7"/>
		
			<rect x="60.2" y="2.6" transform="matrix(-0.7432 0.6691 -0.6691 -0.7432 109.0524 -34.6889)" fill-rule="evenodd" clip-rule="evenodd" fill="#0073B8" width="2" height="2"/>
		
			<rect x="62.8" y="8.8" transform="matrix(-0.7433 0.669 -0.669 -0.7433 117.8796 -25.6422)" fill-rule="evenodd" clip-rule="evenodd" fill="#0073B8" width="2" height="2"/>
		
			<rect x="64.2" y="11.8" transform="matrix(-0.7432 0.6691 -0.6691 -0.7432 122.2181 -21.2348)" fill-rule="evenodd" clip-rule="evenodd" fill="#0073B8" width="2" height="2"/>
		
			<rect x="64.6" y="5.2" transform="matrix(-0.7433 0.669 -0.669 -0.7433 117.7687 -33.51)" fill-rule="evenodd" clip-rule="evenodd" fill="#0073B8" width="1.4" height="1.4"/>
		
			<rect x="63.4" y="2.2" transform="matrix(-0.7436 0.6686 -0.6686 -0.7436 113.5568 -37.8283)" fill-rule="evenodd" clip-rule="evenodd" fill="#0073B8" width="1.4" height="1.4"/>
		
			<rect x="65.9" y="8.1" transform="matrix(-0.7433 0.669 -0.669 -0.7433 122.0032 -29.1687)" fill-rule="evenodd" clip-rule="evenodd" fill="#0073B8" width="1.4" height="1.4"/>
		
			<rect x="61.6" y="5.6" transform="matrix(-0.7432 0.6691 -0.6691 -0.7432 113.4989 -30.3379)" fill-rule="evenodd" clip-rule="evenodd" fill="#0073B8" width="2" height="2"/>
	</g>
	<g>
		<polygon fill="#0073B8" points="3.9,7 3.9,7 2.6,11.8 1.6,11.8 0,5 1.1,5 2.2,10.1 2.2,10.1 3.5,5 4.3,5 5.7,10.1 5.7,10.1 6.7,5 
			7.9,5 6.3,11.8 5.3,11.8 		"/>
		<path fill="#0073B8" d="M12.1,10.7v0.7c-0.4,0.3-1,0.4-1.7,0.4c-1.6,0-2.3-1-2.3-2.5c0-1.5,0.7-2.5,2.2-2.5c1.2,0,1.9,0.8,1.9,2.4
			v0.4H9.1c0,1.2,0.5,1.7,1.5,1.7C11.1,11.2,11.6,11.1,12.1,10.7L12.1,10.7z M9.1,8.9L9.1,8.9h2.2c0-1-0.5-1.4-1.1-1.4
			C9.7,7.5,9.3,8,9.1,8.9z"/>
		<path fill="#0073B8" d="M14.1,7.2c0.3-0.2,0.8-0.4,1.3-0.4c1.2,0,1.8,0.8,1.8,2.4c0,1.8-0.9,2.7-2.3,2.7c-0.5,0-1.3-0.2-1.9-0.5
			V4.7l1-0.2V7.2L14.1,7.2z M14.1,11.1L14.1,11.1c0.3,0.1,0.6,0.2,0.9,0.2c0.7,0,1.3-0.4,1.3-2c0-1.2-0.4-1.6-1.1-1.6
			c-0.4,0-0.7,0.1-1,0.3V11.1z"/>
		<polygon fill="#0073B8" points="21.7,10.4 21.7,10.4 23.8,5 25,5 25,11.8 23.9,11.8 23.9,6.8 23.9,6.8 21.9,11.8 21.3,11.8 
			19.3,7 19.2,7 19.2,11.8 18.3,11.8 18.3,5 19.5,5 		"/>
		<path fill="#0073B8" d="M26,9.4c0-1.7,0.9-2.5,2.2-2.5c1.3,0,2.2,0.8,2.2,2.5c0,1.6-0.9,2.5-2.2,2.5C26.9,11.9,26,11,26,9.4
			L26,9.4z M29.4,9.4L29.4,9.4c0-1.3-0.5-1.9-1.2-1.9c-0.6,0-1.2,0.5-1.2,1.9c0,1.3,0.5,1.8,1.2,1.8C28.9,11.2,29.4,10.7,29.4,9.4z"
			/>
		<path fill="#0073B8" d="M31.3,7.6c0.4-0.3,1.3-0.7,2.5-0.7c1.2,0,1.6,0.5,1.6,1.4v3.5h-1V8.5c0-0.8-0.4-0.9-0.9-0.9
			c-0.4,0-0.9,0.2-1.2,0.3v3.8h-1V7.6z"/>
		<path fill="#0073B8" d="M40.3,10.7v0.7c-0.4,0.3-1,0.4-1.7,0.4c-1.6,0-2.3-1-2.3-2.5c0-1.5,0.7-2.5,2.2-2.5c1.2,0,1.9,0.8,1.9,2.4
			v0.4h-3.1c0,1.2,0.5,1.7,1.5,1.7C39.3,11.2,39.7,11.1,40.3,10.7L40.3,10.7z M37.3,8.9L37.3,8.9h2.2c0-1-0.5-1.4-1.1-1.4
			C37.9,7.5,37.4,8,37.3,8.9z"/>
		<path fill="#0073B8" d="M44.2,7h1l-1.7,4.8c-0.5,1.3-1.1,2-2.2,2v-0.8c0.7,0,1.1-0.5,1.3-1.2L40.7,7h1.1l1.2,3.5h0.1L44.2,7z"/>
	</g>
</g>
</svg>
