<?xml version="1.0" encoding="utf-8"?>
<!-- Generator: Adobe Illustrator 17.1.0, SVG Export Plug-In . SVG Version: 6.00 Build 0)  -->
<!DOCTYPE svg PUBLIC "-//W3C//DTD SVG 1.1//EN" "http://www.w3.org/Graphics/SVG/1.1/DTD/svg11.dtd">
<svg version="1.1" id="Слой_1" xmlns="http://www.w3.org/2000/svg" xmlns:xlink="http://www.w3.org/1999/xlink" x="0px" y="0px"
	 viewBox="0 0 14 16" enable-background="new 0 0 14 16" xml:space="preserve">
<g transform="translate(672 144)">
	<path fill="#CFCFCF" d="M-658.4-144h-12c-0.6,0-1.6,0.5-1.6,1.1v14c0,0.6,1,0.9,1.6,0.9h9l3.4-3.9v-11
		C-658-143.5-657.9-144-658.4-144z M-662-129.4v-2.6h3.2L-662-129.4z M-659-133h-2.4c-0.6,0-1.6,0.5-1.6,1.1v2.9h-8v-14h12V-133z
		 M-669.4-140.5c0-0.3,0.2-0.5,0.5-0.5h9c0.3,0,0.5,0.2,0.5,0.5c0,0.3-0.2,0.5-0.5,0.5h-9C-669.2-140-669.4-140.2-669.4-140.5z
		 M-669.4-137.5c0-0.3,0.2-0.5,0.5-0.5h9c0.3,0,0.5,0.2,0.5,0.5c0,0.3-0.2,0.5-0.5,0.5h-9C-669.2-137-669.4-137.2-669.4-137.5z
		 M-669.4-134.5c0-0.3,0.2-0.5,0.5-0.5h9c0.3,0,0.5,0.2,0.5,0.5c0,0.3-0.2,0.5-0.5,0.5h-9C-669.2-134-669.4-134.2-669.4-134.5z"/>
</g>
</svg>
