<?xml version="1.0" encoding="utf-8"?>
<!-- Generator: Adobe Illustrator 17.1.0, SVG Export Plug-In . SVG Version: 6.00 Build 0)  -->
<!DOCTYPE svg PUBLIC "-//W3C//DTD SVG 1.1//EN" "http://www.w3.org/Graphics/SVG/1.1/DTD/svg11.dtd">
<svg version="1.1" id="Слой_1" xmlns="http://www.w3.org/2000/svg" xmlns:xlink="http://www.w3.org/1999/xlink" x="0px" y="0px"
	 viewBox="0 0 15 16" enable-background="new 0 0 15 16" xml:space="preserve">
<g>
	<polygon fill="#CFCFCF" points="10,2 10,0 5,0 5,2 0,2 0,5 15,5 15,2 	"/>
	<path fill="#CFCFCF" d="M2,6v8.2C2,15.3,3,16,4.1,16h7c1.1,0,1.9-0.7,1.9-1.8V6H2z M5,14H4V8h1V14z M8,14H7V8h1V14z M11,14h-1V8h1
		V14z"/>
</g>
</svg>
