<?xml version="1.0" encoding="utf-8"?>
<!-- Generator: Adobe Illustrator 17.1.0, SVG Export Plug-In . SVG Version: 6.00 Build 0)  -->
<!DOCTYPE svg PUBLIC "-//W3C//DTD SVG 1.1//EN" "http://www.w3.org/Graphics/SVG/1.1/DTD/svg11.dtd">
<svg version="1.1" id="Layer_1" xmlns="http://www.w3.org/2000/svg" xmlns:xlink="http://www.w3.org/1999/xlink" x="0px" y="0px"
	 viewBox="0 0 11.8 12.6" enable-background="new 0 0 11.8 12.6" xml:space="preserve">
<g>
	<g>
		<path fill="#63acdc" d="M1.3,12.6l3.2-3.2C5.2,9.7,6,10,6.8,10c2.7,0,5-2.2,5-5c0-2.8-2.2-5-5-5c-2.8,0-5,2.2-5,5
			c0,1.2,0.5,2.4,1.2,3.2L0,11.3L1.3,12.6z M6.8,8.1C5.1,8.1,3.7,6.7,3.7,5c0-1.7,1.4-3.2,3.1-3.2C8.6,1.8,10,3.2,10,5
			C10,6.7,8.6,8.1,6.8,8.1z"/>
	</g>
</g>
</svg>
