<?xml version="1.0" encoding="utf-8"?>
<!-- Generator: Adobe Illustrator 17.1.0, SVG Export Plug-In . SVG Version: 6.00 Build 0)  -->
<!DOCTYPE svg PUBLIC "-//W3C//DTD SVG 1.1//EN" "http://www.w3.org/Graphics/SVG/1.1/DTD/svg11.dtd">
<svg version="1.1" id="Слой_1" xmlns="http://www.w3.org/2000/svg" xmlns:xlink="http://www.w3.org/1999/xlink" x="0px" y="0px"
	 viewBox="0 0 2560 89" enable-background="new 0 0 2560 89" xml:space="preserve">
<g>
	<rect x="0" y="45" opacity="0.7" fill="#CCCCCC" width="790" height="44"/>
	<rect x="0" y="0.2" opacity="0.7" fill="#FAFAFA" width="790" height="45"/>
</g>
<rect x="1770" y="45" opacity="0.7" fill="#CCCCCC" width="790" height="44"/>
<rect x="1770" y="0.2" opacity="0.7" fill="#FAFAFA" width="790" height="45"/>
</svg>
